<?xml version="1.0" encoding="utf-8"?>
<!DOCTYPE eagle SYSTEM "eagle.dtd">
<eagle version="6.5.0">
<drawing>
<settings>
<setting alwaysvectorfont="no"/>
<setting verticaltext="up"/>
</settings>
<grid distance="0.1" unitdist="inch" unit="inch" style="lines" multiple="1" display="no" altdistance="0.01" altunitdist="inch" altunit="inch"/>
<layers>
<layer number="1" name="Top" color="4" fill="1" visible="no" active="no"/>
<layer number="16" name="Bottom" color="1" fill="1" visible="no" active="no"/>
<layer number="17" name="Pads" color="2" fill="1" visible="no" active="no"/>
<layer number="18" name="Vias" color="2" fill="1" visible="no" active="no"/>
<layer number="19" name="Unrouted" color="6" fill="1" visible="no" active="no"/>
<layer number="20" name="Dimension" color="15" fill="1" visible="no" active="no"/>
<layer number="21" name="tPlace" color="16" fill="1" visible="no" active="no"/>
<layer number="22" name="bPlace" color="7" fill="1" visible="no" active="no"/>
<layer number="23" name="tOrigins" color="15" fill="1" visible="no" active="no"/>
<layer number="24" name="bOrigins" color="15" fill="1" visible="no" active="no"/>
<layer number="25" name="tNames" color="7" fill="1" visible="no" active="no"/>
<layer number="26" name="bNames" color="7" fill="1" visible="no" active="no"/>
<layer number="27" name="tValues" color="7" fill="1" visible="no" active="no"/>
<layer number="28" name="bValues" color="7" fill="1" visible="no" active="no"/>
<layer number="29" name="tStop" color="7" fill="3" visible="no" active="no"/>
<layer number="30" name="bStop" color="7" fill="6" visible="no" active="no"/>
<layer number="31" name="tCream" color="7" fill="4" visible="no" active="no"/>
<layer number="32" name="bCream" color="7" fill="5" visible="no" active="no"/>
<layer number="33" name="tFinish" color="6" fill="3" visible="no" active="no"/>
<layer number="34" name="bFinish" color="6" fill="6" visible="no" active="no"/>
<layer number="35" name="tGlue" color="7" fill="4" visible="no" active="no"/>
<layer number="36" name="bGlue" color="7" fill="5" visible="no" active="no"/>
<layer number="37" name="tTest" color="7" fill="1" visible="no" active="no"/>
<layer number="38" name="bTest" color="7" fill="1" visible="no" active="no"/>
<layer number="39" name="tKeepout" color="4" fill="11" visible="no" active="no"/>
<layer number="40" name="bKeepout" color="1" fill="11" visible="no" active="no"/>
<layer number="41" name="tRestrict" color="4" fill="10" visible="no" active="no"/>
<layer number="42" name="bRestrict" color="1" fill="10" visible="no" active="no"/>
<layer number="43" name="vRestrict" color="2" fill="10" visible="no" active="no"/>
<layer number="44" name="Drills" color="7" fill="1" visible="no" active="no"/>
<layer number="45" name="Holes" color="7" fill="1" visible="no" active="no"/>
<layer number="46" name="Milling" color="3" fill="1" visible="no" active="no"/>
<layer number="47" name="Measures" color="7" fill="1" visible="no" active="no"/>
<layer number="48" name="Document" color="7" fill="1" visible="no" active="no"/>
<layer number="49" name="Reference" color="7" fill="1" visible="no" active="no"/>
<layer number="50" name="dxf" color="7" fill="1" visible="no" active="no"/>
<layer number="51" name="tDocu" color="7" fill="1" visible="no" active="no"/>
<layer number="52" name="bDocu" color="7" fill="1" visible="no" active="no"/>
<layer number="53" name="tGND_GNDA" color="7" fill="9" visible="no" active="no"/>
<layer number="54" name="bGND_GNDA" color="1" fill="9" visible="no" active="no"/>
<layer number="56" name="wert" color="7" fill="1" visible="no" active="no"/>
<layer number="91" name="Nets" color="2" fill="1" visible="yes" active="yes"/>
<layer number="92" name="Busses" color="1" fill="1" visible="yes" active="yes"/>
<layer number="93" name="Pins" color="2" fill="1" visible="no" active="yes"/>
<layer number="94" name="Symbols" color="4" fill="1" visible="yes" active="yes"/>
<layer number="95" name="Names" color="7" fill="1" visible="yes" active="yes"/>
<layer number="96" name="Values" color="7" fill="1" visible="yes" active="yes"/>
<layer number="97" name="Info" color="7" fill="1" visible="yes" active="yes"/>
<layer number="98" name="Guide" color="6" fill="1" visible="yes" active="yes"/>
<layer number="100" name="Muster" color="7" fill="1" visible="no" active="no"/>
<layer number="101" name="Patch_Top" color="12" fill="4" visible="yes" active="yes"/>
<layer number="102" name="Vscore" color="7" fill="1" visible="yes" active="yes"/>
<layer number="103" name="tMap" color="7" fill="1" visible="yes" active="yes"/>
<layer number="104" name="Name" color="16" fill="1" visible="yes" active="yes"/>
<layer number="105" name="tPlate" color="7" fill="1" visible="yes" active="yes"/>
<layer number="106" name="bPlate" color="7" fill="1" visible="yes" active="yes"/>
<layer number="107" name="Crop" color="7" fill="1" visible="yes" active="yes"/>
<layer number="108" name="tplace-old" color="10" fill="1" visible="yes" active="yes"/>
<layer number="109" name="ref-old" color="11" fill="1" visible="yes" active="yes"/>
<layer number="116" name="Patch_BOT" color="9" fill="4" visible="yes" active="yes"/>
<layer number="121" name="_tsilk" color="7" fill="1" visible="yes" active="yes"/>
<layer number="122" name="_bsilk" color="7" fill="1" visible="yes" active="yes"/>
<layer number="125" name="_tNames" color="7" fill="1" visible="yes" active="yes"/>
<layer number="144" name="Drill_legend" color="7" fill="1" visible="yes" active="yes"/>
<layer number="151" name="HeatSink" color="7" fill="1" visible="yes" active="yes"/>
<layer number="199" name="Contour" color="7" fill="1" visible="yes" active="yes"/>
<layer number="200" name="200bmp" color="1" fill="10" visible="yes" active="yes"/>
<layer number="201" name="201bmp" color="2" fill="10" visible="yes" active="yes"/>
<layer number="202" name="202bmp" color="3" fill="10" visible="yes" active="yes"/>
<layer number="203" name="203bmp" color="4" fill="10" visible="yes" active="yes"/>
<layer number="204" name="204bmp" color="5" fill="10" visible="yes" active="yes"/>
<layer number="205" name="205bmp" color="6" fill="10" visible="yes" active="yes"/>
<layer number="206" name="206bmp" color="7" fill="10" visible="yes" active="yes"/>
<layer number="207" name="207bmp" color="8" fill="10" visible="yes" active="yes"/>
<layer number="208" name="208bmp" color="9" fill="10" visible="yes" active="yes"/>
<layer number="209" name="209bmp" color="7" fill="1" visible="yes" active="yes"/>
<layer number="210" name="210bmp" color="7" fill="1" visible="yes" active="yes"/>
<layer number="211" name="211bmp" color="7" fill="1" visible="yes" active="yes"/>
<layer number="212" name="212bmp" color="7" fill="1" visible="yes" active="yes"/>
<layer number="213" name="213bmp" color="7" fill="1" visible="yes" active="yes"/>
<layer number="214" name="214bmp" color="7" fill="1" visible="yes" active="yes"/>
<layer number="215" name="215bmp" color="7" fill="1" visible="yes" active="yes"/>
<layer number="216" name="216bmp" color="7" fill="1" visible="yes" active="yes"/>
<layer number="217" name="217bmp" color="18" fill="1" visible="no" active="no"/>
<layer number="218" name="218bmp" color="19" fill="1" visible="no" active="no"/>
<layer number="219" name="219bmp" color="20" fill="1" visible="no" active="no"/>
<layer number="220" name="220bmp" color="21" fill="1" visible="no" active="no"/>
<layer number="221" name="221bmp" color="22" fill="1" visible="no" active="no"/>
<layer number="222" name="222bmp" color="23" fill="1" visible="no" active="no"/>
<layer number="223" name="223bmp" color="24" fill="1" visible="no" active="no"/>
<layer number="224" name="224bmp" color="25" fill="1" visible="no" active="no"/>
<layer number="250" name="Descript" color="3" fill="1" visible="no" active="no"/>
<layer number="251" name="SMDround" color="12" fill="11" visible="no" active="no"/>
<layer number="254" name="cooling" color="7" fill="1" visible="yes" active="yes"/>
</layers>
<schematic xreflabel="%F%N/%S.%C%R" xrefpart="/%S.%C%R">
<libraries>
<library name="SparkFun-Boards">
<description>&lt;h3&gt;SparkFun Electronics' preferred foot prints&lt;/h3&gt;
In this library you'll find boards and modules: Arduino footprints, breadboards, non-RF modules, etc.&lt;br&gt;&lt;br&gt;
We've spent an enormous amount of time creating and checking these footprints and parts, but it is the end user's responsibility to ensure correctness and suitablity for a given componet or application. If you enjoy using this library, please buy one of our products at www.sparkfun.com.
&lt;br&gt;&lt;br&gt;
&lt;b&gt;Licensing:&lt;/b&gt; CC v3.0 Share-Alike You are welcome to use this library for commercial purposes. For attribution, we ask that when you begin to sell your device using our footprint, you email us with a link to the product being sold. We want bragging rights that we helped (in a very small part) to create your 8th world wonder. We would like the opportunity to feature your device on our homepage.</description>
<packages>
<package name="UNO_R3_SHIELD">
<description>Uno R3 Compatible Board Layout</description>
<wire x1="2.54" y1="0" x2="9.5" y2="0" width="0.254" layer="51"/>
<wire x1="9.5" y1="0" x2="21.7" y2="0" width="0.254" layer="51"/>
<wire x1="21.7" y1="0" x2="50.8" y2="0" width="0.254" layer="51"/>
<wire x1="50.8" y1="0" x2="53.34" y2="2.54" width="0.254" layer="51"/>
<wire x1="53.34" y1="57.15" x2="50.8" y2="57.15" width="0.254" layer="51"/>
<wire x1="50.8" y1="57.15" x2="48.26" y2="59.69" width="0.254" layer="51"/>
<wire x1="0" y1="55.88" x2="0" y2="2.54" width="0.254" layer="51"/>
<wire x1="0" y1="2.54" x2="2.54" y2="0" width="0.254" layer="51"/>
<wire x1="48.26" y1="59.69" x2="15.24" y2="59.69" width="0.254" layer="51"/>
<wire x1="15.24" y1="59.69" x2="12.7" y2="57.15" width="0.254" layer="51"/>
<wire x1="12.7" y1="57.15" x2="1.27" y2="57.15" width="0.254" layer="51"/>
<wire x1="1.27" y1="57.15" x2="0" y2="55.88" width="0.254" layer="51"/>
<wire x1="53.34" y1="2.54" x2="53.34" y2="57.15" width="0.254" layer="51"/>
<wire x1="9.5" y1="-15.5" x2="21.7" y2="-15.5" width="0.254" layer="51"/>
<wire x1="40.2" y1="-10.3" x2="49.2" y2="-10.3" width="0.254" layer="51"/>
<wire x1="9.5" y1="-15.5" x2="9.5" y2="0" width="0.254" layer="51"/>
<wire x1="21.7" y1="-15.5" x2="21.7" y2="0" width="0.254" layer="51"/>
<wire x1="40.2" y1="-10.3" x2="40.2" y2="-0.1" width="0.254" layer="51"/>
<wire x1="49.2" y1="-10.3" x2="49.2" y2="-0.1" width="0.254" layer="51"/>
<wire x1="1.27" y1="55.88" x2="3.81" y2="55.88" width="0.127" layer="51"/>
<wire x1="3.81" y1="55.88" x2="3.81" y2="35.56" width="0.127" layer="51"/>
<wire x1="3.81" y1="35.56" x2="1.27" y2="35.56" width="0.127" layer="51"/>
<wire x1="1.27" y1="35.56" x2="1.27" y2="55.88" width="0.127" layer="51"/>
<wire x1="1.27" y1="34.29" x2="3.81" y2="34.29" width="0.127" layer="51"/>
<wire x1="3.81" y1="34.29" x2="3.81" y2="8.89" width="0.127" layer="51"/>
<wire x1="3.81" y1="8.89" x2="1.27" y2="8.89" width="0.127" layer="51"/>
<wire x1="1.27" y1="8.89" x2="1.27" y2="34.29" width="0.127" layer="51"/>
<wire x1="49.53" y1="17.78" x2="52.07" y2="17.78" width="0.127" layer="51"/>
<wire x1="52.07" y1="17.78" x2="52.07" y2="38.1" width="0.127" layer="51"/>
<wire x1="52.07" y1="38.1" x2="49.53" y2="38.1" width="0.127" layer="51"/>
<wire x1="49.53" y1="38.1" x2="49.53" y2="17.78" width="0.127" layer="51"/>
<wire x1="52.07" y1="40.64" x2="49.53" y2="40.64" width="0.127" layer="51"/>
<wire x1="49.53" y1="40.64" x2="49.53" y2="55.88" width="0.127" layer="51"/>
<wire x1="49.53" y1="55.88" x2="52.07" y2="55.88" width="0.127" layer="51"/>
<wire x1="52.07" y1="55.88" x2="52.07" y2="40.64" width="0.127" layer="51"/>
<pad name="RES" x="50.8" y="24.13" drill="1.016" diameter="1.8796" rot="R90"/>
<pad name="3.3V" x="50.8" y="26.67" drill="1.016" diameter="1.8796" rot="R90"/>
<pad name="5V" x="50.8" y="29.21" drill="1.016" diameter="1.8796" rot="R90"/>
<pad name="GND@0" x="50.8" y="31.75" drill="1.016" diameter="1.8796" rot="R90"/>
<pad name="GND@1" x="50.8" y="34.29" drill="1.016" diameter="1.8796" rot="R90"/>
<pad name="VIN" x="50.8" y="36.83" drill="1.016" diameter="1.8796" rot="R90"/>
<pad name="A0" x="50.8" y="41.91" drill="1.016" diameter="1.8796" rot="R90"/>
<pad name="A1" x="50.8" y="44.45" drill="1.016" diameter="1.8796" rot="R90"/>
<pad name="A2" x="50.8" y="46.99" drill="1.016" diameter="1.8796" rot="R90"/>
<pad name="A3" x="50.8" y="49.53" drill="1.016" diameter="1.8796" rot="R90"/>
<pad name="A4" x="50.8" y="52.07" drill="1.016" diameter="1.8796" rot="R90"/>
<pad name="A5" x="50.8" y="54.61" drill="1.016" diameter="1.8796" rot="R90"/>
<pad name="RX" x="2.54" y="54.61" drill="1.016" diameter="1.8796" rot="R90"/>
<pad name="TX" x="2.54" y="52.07" drill="1.016" diameter="1.8796" rot="R90"/>
<pad name="D2" x="2.54" y="49.53" drill="1.016" diameter="1.8796" rot="R90"/>
<pad name="D3" x="2.54" y="46.99" drill="1.016" diameter="1.8796" rot="R90"/>
<pad name="D4" x="2.54" y="44.45" drill="1.016" diameter="1.8796" rot="R90"/>
<pad name="D5" x="2.54" y="41.91" drill="1.016" diameter="1.8796" rot="R90"/>
<pad name="D6" x="2.54" y="39.37" drill="1.016" diameter="1.8796" rot="R90"/>
<pad name="D7" x="2.54" y="36.83" drill="1.016" diameter="1.8796" rot="R90"/>
<pad name="D8" x="2.54" y="33.02" drill="1.016" diameter="1.8796" rot="R90"/>
<pad name="D9" x="2.54" y="30.48" drill="1.016" diameter="1.8796" rot="R90"/>
<pad name="D10" x="2.54" y="27.94" drill="1.016" diameter="1.8796" rot="R90"/>
<pad name="D11" x="2.54" y="25.4" drill="1.016" diameter="1.8796" rot="R90"/>
<pad name="D12" x="2.54" y="22.86" drill="1.016" diameter="1.8796" rot="R90"/>
<pad name="D13" x="2.54" y="20.32" drill="1.016" diameter="1.8796" rot="R90"/>
<pad name="GND@2" x="2.54" y="17.78" drill="1.016" diameter="1.8796" rot="R90"/>
<pad name="AREF" x="2.54" y="15.24" drill="1.016" diameter="1.8796" rot="R90"/>
<text x="49.4157" y="32.258" size="1.016" layer="21" ratio="15" rot="R180">GND</text>
<text x="49.4157" y="34.798" size="1.016" layer="21" ratio="15" rot="R180">GND</text>
<text x="49.4157" y="29.718" size="1.016" layer="21" ratio="15" rot="R180">+5V</text>
<text x="49.4157" y="24.638" size="1.016" layer="21" ratio="15" rot="R180">RST</text>
<text x="49.4157" y="37.338" size="1.016" layer="21" ratio="15" rot="R180">VIN</text>
<text x="49.4157" y="27.178" size="1.016" layer="21" ratio="15" rot="R180">+3.3V</text>
<text x="49.4157" y="42.418" size="1.016" layer="21" ratio="15" rot="R180">0</text>
<text x="49.4157" y="44.958" size="1.016" layer="21" ratio="15" rot="R180">1</text>
<text x="49.4157" y="47.498" size="1.016" layer="21" ratio="15" rot="R180">2</text>
<text x="49.4157" y="50.038" size="1.016" layer="21" ratio="15" rot="R180">3</text>
<text x="49.4157" y="52.578" size="1.016" layer="21" ratio="15" rot="R180">4</text>
<text x="49.4157" y="55.118" size="1.016" layer="21" ratio="15" rot="R180">5</text>
<text x="46.8757" y="52.197" size="1.016" layer="21" ratio="15" rot="R270">Analog In</text>
<text x="3.81" y="17.272" size="1.016" layer="21" ratio="15">GND</text>
<text x="3.81" y="19.812" size="1.016" layer="21" ratio="15">13</text>
<text x="3.81" y="22.352" size="1.016" layer="21" ratio="15">12</text>
<text x="3.81" y="24.892" size="1.016" layer="21" ratio="15">11</text>
<text x="3.81" y="14.732" size="1.016" layer="21" ratio="15">AREF</text>
<text x="3.81" y="27.432" size="1.016" layer="21" ratio="15">10</text>
<text x="3.81" y="29.972" size="1.016" layer="21" ratio="15">9</text>
<text x="3.81" y="32.512" size="1.016" layer="21" ratio="15">8</text>
<text x="3.81" y="36.322" size="1.016" layer="21" ratio="15">7</text>
<text x="3.81" y="38.862" size="1.016" layer="21" ratio="15">6</text>
<text x="3.81" y="41.402" size="1.016" layer="21" ratio="15">5</text>
<text x="3.81" y="43.942" size="1.016" layer="21" ratio="15">4</text>
<text x="3.81" y="46.482" size="1.016" layer="21" ratio="15">3</text>
<text x="3.81" y="49.022" size="1.016" layer="21" ratio="15">2</text>
<text x="3.81" y="51.562" size="1.016" layer="21" ratio="15">TX</text>
<text x="3.81" y="54.102" size="1.016" layer="21" ratio="15">RX</text>
<pad name="SDA" x="2.54" y="12.7" drill="1.016" diameter="1.8796" rot="R90"/>
<pad name="SCL" x="2.54" y="10.16" drill="1.016" diameter="1.8796" rot="R90"/>
<text x="3.81" y="12.192" size="1.016" layer="21" ratio="15">SDA</text>
<text x="3.81" y="9.652" size="1.016" layer="21" ratio="15">SCL</text>
<pad name="IOREF" x="50.8" y="21.59" drill="1.016" diameter="1.8796" rot="R90"/>
<pad name="NC" x="50.8" y="19.05" drill="1.016" diameter="1.8796" rot="R90"/>
<text x="49.4157" y="22.098" size="1.016" layer="21" ratio="15" rot="R180">IOREF</text>
<wire x1="22.225" y1="53.34" x2="21.59" y2="53.975" width="0.254" layer="51"/>
<wire x1="21.59" y1="53.975" x2="21.59" y2="57.785" width="0.254" layer="51"/>
<wire x1="21.59" y1="57.785" x2="22.225" y2="58.42" width="0.254" layer="51"/>
<wire x1="22.225" y1="58.42" x2="28.575" y2="58.42" width="0.254" layer="51"/>
<wire x1="28.575" y1="58.42" x2="29.21" y2="57.785" width="0.254" layer="51"/>
<wire x1="29.21" y1="57.785" x2="29.21" y2="53.975" width="0.254" layer="51"/>
<wire x1="29.21" y1="53.975" x2="28.575" y2="53.34" width="0.254" layer="51"/>
<wire x1="28.575" y1="53.34" x2="22.225" y2="53.34" width="0.254" layer="51"/>
<text x="27.305" y="52.451" size="0.508" layer="51" font="vector" ratio="15">RST</text>
<text x="24.892" y="55.626" size="0.508" layer="51" ratio="15">ISP</text>
<wire x1="23.495" y1="52.832" x2="22.225" y2="52.832" width="0.2032" layer="51"/>
</package>
<package name="UNO_R3_SHIELD_NOLABELS">
<wire x1="2.54" y1="0" x2="9.5" y2="0" width="0.254" layer="51"/>
<wire x1="9.5" y1="0" x2="21.7" y2="0" width="0.254" layer="51"/>
<wire x1="21.7" y1="0" x2="50.8" y2="0" width="0.254" layer="51"/>
<wire x1="50.8" y1="0" x2="53.34" y2="2.54" width="0.254" layer="51"/>
<wire x1="53.34" y1="57.15" x2="50.8" y2="57.15" width="0.254" layer="51"/>
<wire x1="50.8" y1="57.15" x2="48.26" y2="59.69" width="0.254" layer="51"/>
<wire x1="0" y1="55.88" x2="0" y2="2.54" width="0.254" layer="51"/>
<wire x1="0" y1="2.54" x2="2.54" y2="0" width="0.254" layer="51"/>
<wire x1="48.26" y1="59.69" x2="15.24" y2="59.69" width="0.254" layer="51"/>
<wire x1="15.24" y1="59.69" x2="12.7" y2="57.15" width="0.254" layer="51"/>
<wire x1="12.7" y1="57.15" x2="1.27" y2="57.15" width="0.254" layer="51"/>
<wire x1="1.27" y1="57.15" x2="0" y2="55.88" width="0.254" layer="51"/>
<wire x1="53.34" y1="2.54" x2="53.34" y2="57.15" width="0.254" layer="51"/>
<wire x1="9.5" y1="-15.5" x2="21.7" y2="-15.5" width="0.254" layer="51"/>
<wire x1="40.2" y1="-10.3" x2="49.2" y2="-10.3" width="0.254" layer="51"/>
<wire x1="9.5" y1="-15.5" x2="9.5" y2="0" width="0.254" layer="51"/>
<wire x1="21.7" y1="-15.5" x2="21.7" y2="0" width="0.254" layer="51"/>
<wire x1="40.2" y1="-10.3" x2="40.2" y2="-0.1" width="0.254" layer="51"/>
<wire x1="49.2" y1="-10.3" x2="49.2" y2="-0.1" width="0.254" layer="51"/>
<wire x1="1.27" y1="55.88" x2="3.81" y2="55.88" width="0.127" layer="51"/>
<wire x1="3.81" y1="55.88" x2="3.81" y2="35.56" width="0.127" layer="51"/>
<wire x1="3.81" y1="35.56" x2="1.27" y2="35.56" width="0.127" layer="51"/>
<wire x1="1.27" y1="35.56" x2="1.27" y2="55.88" width="0.127" layer="51"/>
<wire x1="1.27" y1="34.29" x2="3.81" y2="34.29" width="0.127" layer="51"/>
<wire x1="3.81" y1="34.29" x2="3.81" y2="8.89" width="0.127" layer="51"/>
<wire x1="3.81" y1="8.89" x2="1.27" y2="8.89" width="0.127" layer="51"/>
<wire x1="1.27" y1="8.89" x2="1.27" y2="34.29" width="0.127" layer="51"/>
<wire x1="49.53" y1="17.78" x2="52.07" y2="17.78" width="0.127" layer="51"/>
<wire x1="52.07" y1="17.78" x2="52.07" y2="38.1" width="0.127" layer="51"/>
<wire x1="52.07" y1="38.1" x2="49.53" y2="38.1" width="0.127" layer="51"/>
<wire x1="52.07" y1="40.64" x2="49.53" y2="40.64" width="0.127" layer="51"/>
<wire x1="49.53" y1="40.64" x2="49.53" y2="55.88" width="0.127" layer="51"/>
<wire x1="49.53" y1="55.88" x2="52.07" y2="55.88" width="0.127" layer="51"/>
<wire x1="52.07" y1="55.88" x2="52.07" y2="40.64" width="0.127" layer="51"/>
<pad name="RES" x="50.8" y="24.13" drill="1.016" diameter="1.8796" rot="R90"/>
<pad name="3.3V" x="50.8" y="26.67" drill="1.016" diameter="1.8796" rot="R90"/>
<pad name="5V" x="50.8" y="29.21" drill="1.016" diameter="1.8796" rot="R90"/>
<pad name="GND@0" x="50.8" y="31.75" drill="1.016" diameter="1.8796" rot="R90"/>
<pad name="GND@1" x="50.8" y="34.29" drill="1.016" diameter="1.8796" rot="R90"/>
<pad name="VIN" x="50.8" y="36.83" drill="1.016" diameter="1.8796" rot="R90"/>
<pad name="A0" x="50.8" y="41.91" drill="1.016" diameter="1.8796" rot="R90"/>
<pad name="A1" x="50.8" y="44.45" drill="1.016" diameter="1.8796" rot="R90"/>
<pad name="A2" x="50.8" y="46.99" drill="1.016" diameter="1.8796" rot="R90"/>
<pad name="A3" x="50.8" y="49.53" drill="1.016" diameter="1.8796" rot="R90"/>
<pad name="A4" x="50.8" y="52.07" drill="1.016" diameter="1.8796" rot="R90"/>
<pad name="A5" x="50.8" y="54.61" drill="1.016" diameter="1.8796" rot="R90"/>
<pad name="RX" x="2.54" y="54.61" drill="1.016" diameter="1.8796" rot="R90"/>
<pad name="TX" x="2.54" y="52.07" drill="1.016" diameter="1.8796" rot="R90"/>
<pad name="D2" x="2.54" y="49.53" drill="1.016" diameter="1.8796" rot="R90"/>
<pad name="D3" x="2.54" y="46.99" drill="1.016" diameter="1.8796" rot="R90"/>
<pad name="D4" x="2.54" y="44.45" drill="1.016" diameter="1.8796" rot="R90"/>
<pad name="D5" x="2.54" y="41.91" drill="1.016" diameter="1.8796" rot="R90"/>
<pad name="D6" x="2.54" y="39.37" drill="1.016" diameter="1.8796" rot="R90"/>
<pad name="D7" x="2.54" y="36.83" drill="1.016" diameter="1.8796" rot="R90"/>
<pad name="D8" x="2.54" y="33.02" drill="1.016" diameter="1.8796" rot="R90"/>
<pad name="D9" x="2.54" y="30.48" drill="1.016" diameter="1.8796" rot="R90"/>
<pad name="D10" x="2.54" y="27.94" drill="1.016" diameter="1.8796" rot="R90"/>
<pad name="D11" x="2.54" y="25.4" drill="1.016" diameter="1.8796" rot="R90"/>
<pad name="D12" x="2.54" y="22.86" drill="1.016" diameter="1.8796" rot="R90"/>
<pad name="D13" x="2.54" y="20.32" drill="1.016" diameter="1.8796" rot="R90"/>
<pad name="GND@2" x="2.54" y="17.78" drill="1.016" diameter="1.8796" rot="R90"/>
<pad name="AREF" x="2.54" y="15.24" drill="1.016" diameter="1.8796" rot="R90"/>
<pad name="SDA" x="2.54" y="12.7" drill="1.016" diameter="1.8796" rot="R90"/>
<pad name="SCL" x="2.54" y="10.16" drill="1.016" diameter="1.8796" rot="R90"/>
<pad name="IOREF" x="50.8" y="21.59" drill="1.016" diameter="1.8796" rot="R90"/>
<pad name="NC" x="50.8" y="19.05" drill="1.016" diameter="1.8796" rot="R90"/>
<wire x1="22.225" y1="53.34" x2="21.59" y2="53.975" width="0.254" layer="51"/>
<wire x1="21.59" y1="53.975" x2="21.59" y2="57.785" width="0.254" layer="51"/>
<wire x1="21.59" y1="57.785" x2="22.225" y2="58.42" width="0.254" layer="51"/>
<wire x1="22.225" y1="58.42" x2="28.575" y2="58.42" width="0.254" layer="51"/>
<wire x1="28.575" y1="58.42" x2="29.21" y2="57.785" width="0.254" layer="51"/>
<wire x1="29.21" y1="57.785" x2="29.21" y2="53.975" width="0.254" layer="51"/>
<wire x1="29.21" y1="53.975" x2="28.575" y2="53.34" width="0.254" layer="51"/>
<wire x1="28.575" y1="53.34" x2="22.225" y2="53.34" width="0.254" layer="51"/>
<text x="27.305" y="52.451" size="0.508" layer="51" font="vector" ratio="15">RST</text>
<text x="24.892" y="55.626" size="0.508" layer="51" ratio="15">ISP</text>
<wire x1="23.495" y1="52.832" x2="22.225" y2="52.832" width="0.2032" layer="51"/>
<wire x1="49.53" y1="38.1" x2="49.53" y2="17.78" width="0.127" layer="51"/>
</package>
</packages>
<symbols>
<symbol name="ARDUINO_R3_SHIELD">
<wire x1="-10.16" y1="-25.4" x2="-10.16" y2="20.32" width="0.254" layer="94"/>
<wire x1="-10.16" y1="20.32" x2="10.16" y2="20.32" width="0.254" layer="94"/>
<wire x1="10.16" y1="20.32" x2="10.16" y2="-25.4" width="0.254" layer="94"/>
<wire x1="10.16" y1="-25.4" x2="-10.16" y2="-25.4" width="0.254" layer="94"/>
<text x="-9.652" y="21.082" size="1.778" layer="95">&gt;Name</text>
<text x="-6.35" y="-27.94" size="1.778" layer="96">&gt;Value</text>
<pin name="RX" x="12.7" y="17.78" visible="pin" length="short" rot="R180"/>
<pin name="TX" x="12.7" y="15.24" visible="pin" length="short" rot="R180"/>
<pin name="D2" x="12.7" y="10.16" visible="pin" length="short" rot="R180"/>
<pin name="*D3" x="12.7" y="7.62" visible="pin" length="short" rot="R180"/>
<pin name="D4" x="12.7" y="5.08" visible="pin" length="short" rot="R180"/>
<pin name="*D5" x="12.7" y="2.54" visible="pin" length="short" rot="R180"/>
<pin name="*D6" x="12.7" y="0" visible="pin" length="short" rot="R180"/>
<pin name="D7" x="12.7" y="-2.54" visible="pin" length="short" rot="R180"/>
<pin name="D8" x="12.7" y="-5.08" visible="pin" length="short" rot="R180"/>
<pin name="*D9" x="12.7" y="-7.62" visible="pin" length="short" rot="R180"/>
<pin name="*D10" x="12.7" y="-10.16" visible="pin" length="short" rot="R180"/>
<pin name="*D11" x="12.7" y="-12.7" visible="pin" length="short" rot="R180"/>
<pin name="D12" x="12.7" y="-15.24" visible="pin" length="short" rot="R180"/>
<pin name="D13" x="12.7" y="-17.78" visible="pin" length="short" rot="R180"/>
<pin name="A0" x="-12.7" y="17.78" visible="pin" length="short"/>
<pin name="A1" x="-12.7" y="15.24" visible="pin" length="short"/>
<pin name="A2" x="-12.7" y="12.7" visible="pin" length="short"/>
<pin name="A3" x="-12.7" y="10.16" visible="pin" length="short"/>
<pin name="A4" x="-12.7" y="7.62" visible="pin" length="short"/>
<pin name="A5" x="-12.7" y="5.08" visible="pin" length="short"/>
<pin name="VIN" x="-12.7" y="-7.62" visible="pin" length="short"/>
<pin name="RES" x="-12.7" y="-5.08" visible="pin" length="short"/>
<pin name="5V" x="-12.7" y="-10.16" visible="pin" length="short"/>
<pin name="AREF" x="-12.7" y="-15.24" visible="pin" length="short"/>
<pin name="GND@2" x="-12.7" y="-17.78" visible="pin" length="short"/>
<pin name="GND@1" x="-12.7" y="-20.32" visible="pin" length="short"/>
<pin name="GND@0" x="-12.7" y="-22.86" visible="pin" length="short"/>
<pin name="3.3V" x="-12.7" y="-12.7" visible="pin" length="short"/>
<pin name="IOREF" x="-12.7" y="-2.54" visible="pin" length="short"/>
<pin name="SDA" x="12.7" y="-20.32" visible="pin" length="short" rot="R180"/>
<pin name="SCL" x="12.7" y="-22.86" visible="pin" length="short" rot="R180"/>
</symbol>
</symbols>
<devicesets>
<deviceset name="ARDUINO_R3_SHIELD">
<description>Shield form compatible with the Arduino Uno R3.</description>
<gates>
<gate name="G$1" symbol="ARDUINO_R3_SHIELD" x="0" y="0"/>
</gates>
<devices>
<device name="" package="UNO_R3_SHIELD">
<connects>
<connect gate="G$1" pin="*D10" pad="D10"/>
<connect gate="G$1" pin="*D11" pad="D11"/>
<connect gate="G$1" pin="*D3" pad="D3"/>
<connect gate="G$1" pin="*D5" pad="D5"/>
<connect gate="G$1" pin="*D6" pad="D6"/>
<connect gate="G$1" pin="*D9" pad="D9"/>
<connect gate="G$1" pin="3.3V" pad="3.3V"/>
<connect gate="G$1" pin="5V" pad="5V"/>
<connect gate="G$1" pin="A0" pad="A0"/>
<connect gate="G$1" pin="A1" pad="A1"/>
<connect gate="G$1" pin="A2" pad="A2"/>
<connect gate="G$1" pin="A3" pad="A3"/>
<connect gate="G$1" pin="A4" pad="A4"/>
<connect gate="G$1" pin="A5" pad="A5"/>
<connect gate="G$1" pin="AREF" pad="AREF"/>
<connect gate="G$1" pin="D12" pad="D12"/>
<connect gate="G$1" pin="D13" pad="D13"/>
<connect gate="G$1" pin="D2" pad="D2"/>
<connect gate="G$1" pin="D4" pad="D4"/>
<connect gate="G$1" pin="D7" pad="D7"/>
<connect gate="G$1" pin="D8" pad="D8"/>
<connect gate="G$1" pin="GND@0" pad="GND@0"/>
<connect gate="G$1" pin="GND@1" pad="GND@1"/>
<connect gate="G$1" pin="GND@2" pad="GND@2"/>
<connect gate="G$1" pin="IOREF" pad="IOREF"/>
<connect gate="G$1" pin="RES" pad="RES"/>
<connect gate="G$1" pin="RX" pad="RX"/>
<connect gate="G$1" pin="SCL" pad="SCL"/>
<connect gate="G$1" pin="SDA" pad="SDA"/>
<connect gate="G$1" pin="TX" pad="TX"/>
<connect gate="G$1" pin="VIN" pad="VIN"/>
</connects>
<technologies>
<technology name=""/>
</technologies>
</device>
<device name="NOLABELS" package="UNO_R3_SHIELD_NOLABELS">
<connects>
<connect gate="G$1" pin="*D10" pad="D10"/>
<connect gate="G$1" pin="*D11" pad="D11"/>
<connect gate="G$1" pin="*D3" pad="D3"/>
<connect gate="G$1" pin="*D5" pad="D5"/>
<connect gate="G$1" pin="*D6" pad="D6"/>
<connect gate="G$1" pin="*D9" pad="D9"/>
<connect gate="G$1" pin="3.3V" pad="3.3V"/>
<connect gate="G$1" pin="5V" pad="5V"/>
<connect gate="G$1" pin="A0" pad="A0"/>
<connect gate="G$1" pin="A1" pad="A1"/>
<connect gate="G$1" pin="A2" pad="A2"/>
<connect gate="G$1" pin="A3" pad="A3"/>
<connect gate="G$1" pin="A4" pad="A4"/>
<connect gate="G$1" pin="A5" pad="A5"/>
<connect gate="G$1" pin="AREF" pad="AREF"/>
<connect gate="G$1" pin="D12" pad="D12"/>
<connect gate="G$1" pin="D13" pad="D13"/>
<connect gate="G$1" pin="D2" pad="D2"/>
<connect gate="G$1" pin="D4" pad="D4"/>
<connect gate="G$1" pin="D7" pad="D7"/>
<connect gate="G$1" pin="D8" pad="D8"/>
<connect gate="G$1" pin="GND@0" pad="GND@0"/>
<connect gate="G$1" pin="GND@1" pad="GND@1"/>
<connect gate="G$1" pin="GND@2" pad="GND@2"/>
<connect gate="G$1" pin="IOREF" pad="IOREF"/>
<connect gate="G$1" pin="RES" pad="RES"/>
<connect gate="G$1" pin="RX" pad="RX"/>
<connect gate="G$1" pin="SCL" pad="SCL"/>
<connect gate="G$1" pin="SDA" pad="SDA"/>
<connect gate="G$1" pin="TX" pad="TX"/>
<connect gate="G$1" pin="VIN" pad="VIN"/>
</connects>
<technologies>
<technology name=""/>
</technologies>
</device>
</devices>
</deviceset>
</devicesets>
</library>
<library name="SparkFun-Connectors">
<description>&lt;h3&gt;SparkFun Electronics' preferred foot prints&lt;/h3&gt;
In this library you'll find connectors and sockets- basically anything that can be plugged into or onto.&lt;br&gt;&lt;br&gt;
We've spent an enormous amount of time creating and checking these footprints and parts, but it is the end user's responsibility to ensure correctness and suitablity for a given componet or application. If you enjoy using this library, please buy one of our products at www.sparkfun.com.
&lt;br&gt;&lt;br&gt;
&lt;b&gt;Licensing:&lt;/b&gt; CC v3.0 Share-Alike You are welcome to use this library for commercial purposes. For attribution, we ask that when you begin to sell your device using our footprint, you email us with a link to the product being sold. We want bragging rights that we helped (in a very small part) to create your 8th world wonder. We would like the opportunity to feature your device on our homepage.</description>
<packages>
<package name="2X3">
<wire x1="-1.27" y1="-0.635" x2="-0.635" y2="-1.27" width="0.2032" layer="21"/>
<wire x1="0.635" y1="-1.27" x2="1.27" y2="-0.635" width="0.2032" layer="21"/>
<wire x1="1.27" y1="-0.635" x2="1.905" y2="-1.27" width="0.2032" layer="21"/>
<wire x1="3.175" y1="-1.27" x2="3.81" y2="-0.635" width="0.2032" layer="21"/>
<wire x1="3.81" y1="-0.635" x2="4.445" y2="-1.27" width="0.2032" layer="21"/>
<wire x1="5.715" y1="-1.27" x2="6.35" y2="-0.635" width="0.2032" layer="21"/>
<wire x1="-1.27" y1="-0.635" x2="-1.27" y2="3.175" width="0.2032" layer="21"/>
<wire x1="-1.27" y1="3.175" x2="-0.635" y2="3.81" width="0.2032" layer="21"/>
<wire x1="-0.635" y1="3.81" x2="0.635" y2="3.81" width="0.2032" layer="21"/>
<wire x1="0.635" y1="3.81" x2="1.27" y2="3.175" width="0.2032" layer="21"/>
<wire x1="1.27" y1="3.175" x2="1.905" y2="3.81" width="0.2032" layer="21"/>
<wire x1="1.905" y1="3.81" x2="3.175" y2="3.81" width="0.2032" layer="21"/>
<wire x1="3.175" y1="3.81" x2="3.81" y2="3.175" width="0.2032" layer="21"/>
<wire x1="3.81" y1="3.175" x2="4.445" y2="3.81" width="0.2032" layer="21"/>
<wire x1="4.445" y1="3.81" x2="5.715" y2="3.81" width="0.2032" layer="21"/>
<wire x1="5.715" y1="3.81" x2="6.35" y2="3.175" width="0.2032" layer="21"/>
<wire x1="1.27" y1="3.175" x2="1.27" y2="-0.635" width="0.2032" layer="21"/>
<wire x1="3.81" y1="3.175" x2="3.81" y2="-0.635" width="0.2032" layer="21"/>
<wire x1="6.35" y1="3.175" x2="6.35" y2="-0.635" width="0.2032" layer="21"/>
<wire x1="4.445" y1="-1.27" x2="5.715" y2="-1.27" width="0.2032" layer="21"/>
<wire x1="1.905" y1="-1.27" x2="3.175" y2="-1.27" width="0.2032" layer="21"/>
<wire x1="-0.635" y1="-1.27" x2="0.635" y2="-1.27" width="0.2032" layer="21"/>
<wire x1="0.635" y1="-1.605" x2="-0.635" y2="-1.605" width="0.2032" layer="21"/>
<pad name="1" x="0" y="0" drill="1.016" diameter="1.8796" shape="octagon"/>
<pad name="2" x="0" y="2.54" drill="1.016" diameter="1.8796" shape="octagon"/>
<pad name="3" x="2.54" y="0" drill="1.016" diameter="1.8796" shape="octagon"/>
<pad name="4" x="2.54" y="2.54" drill="1.016" diameter="1.8796" shape="octagon"/>
<pad name="5" x="5.08" y="0" drill="1.016" diameter="1.8796" shape="octagon"/>
<pad name="6" x="5.08" y="2.54" drill="1.016" diameter="1.8796" shape="octagon"/>
<text x="-1.27" y="4.445" size="1.27" layer="25" ratio="10">&gt;NAME</text>
<text x="-1.27" y="-3.175" size="1.27" layer="27">&gt;VALUE</text>
<rectangle x1="-0.254" y1="-0.254" x2="0.254" y2="0.254" layer="51"/>
<rectangle x1="-0.254" y1="2.286" x2="0.254" y2="2.794" layer="51"/>
<rectangle x1="2.286" y1="2.286" x2="2.794" y2="2.794" layer="51"/>
<rectangle x1="2.286" y1="-0.254" x2="2.794" y2="0.254" layer="51"/>
<rectangle x1="4.826" y1="2.286" x2="5.334" y2="2.794" layer="51"/>
<rectangle x1="4.826" y1="-0.254" x2="5.334" y2="0.254" layer="51"/>
</package>
<package name="2X3-NS">
<wire x1="-3.81" y1="-1.905" x2="-3.175" y2="-2.54" width="0.2032" layer="51"/>
<wire x1="-1.905" y1="-2.54" x2="-1.27" y2="-1.905" width="0.2032" layer="51"/>
<wire x1="-1.27" y1="-1.905" x2="-0.635" y2="-2.54" width="0.2032" layer="51"/>
<wire x1="0.635" y1="-2.54" x2="1.27" y2="-1.905" width="0.2032" layer="51"/>
<wire x1="1.27" y1="-1.905" x2="1.905" y2="-2.54" width="0.2032" layer="51"/>
<wire x1="3.175" y1="-2.54" x2="3.81" y2="-1.905" width="0.2032" layer="51"/>
<wire x1="-3.81" y1="-1.905" x2="-3.81" y2="1.905" width="0.2032" layer="51"/>
<wire x1="-3.81" y1="1.905" x2="-3.175" y2="2.54" width="0.2032" layer="51"/>
<wire x1="-3.175" y1="2.54" x2="-1.905" y2="2.54" width="0.2032" layer="51"/>
<wire x1="-1.905" y1="2.54" x2="-1.27" y2="1.905" width="0.2032" layer="51"/>
<wire x1="-1.27" y1="1.905" x2="-0.635" y2="2.54" width="0.2032" layer="51"/>
<wire x1="-0.635" y1="2.54" x2="0.635" y2="2.54" width="0.2032" layer="51"/>
<wire x1="0.635" y1="2.54" x2="1.27" y2="1.905" width="0.2032" layer="51"/>
<wire x1="1.27" y1="1.905" x2="1.905" y2="2.54" width="0.2032" layer="51"/>
<wire x1="1.905" y1="2.54" x2="3.175" y2="2.54" width="0.2032" layer="51"/>
<wire x1="3.175" y1="2.54" x2="3.81" y2="1.905" width="0.2032" layer="51"/>
<wire x1="-1.27" y1="1.905" x2="-1.27" y2="-1.905" width="0.2032" layer="51"/>
<wire x1="1.27" y1="1.905" x2="1.27" y2="-1.905" width="0.2032" layer="51"/>
<wire x1="3.81" y1="1.905" x2="3.81" y2="-1.905" width="0.2032" layer="51"/>
<wire x1="1.905" y1="-2.54" x2="3.175" y2="-2.54" width="0.2032" layer="51"/>
<wire x1="-0.635" y1="-2.54" x2="0.635" y2="-2.54" width="0.2032" layer="51"/>
<wire x1="-3.175" y1="-2.54" x2="-1.905" y2="-2.54" width="0.2032" layer="51"/>
<wire x1="-1.905" y1="-2.875" x2="-3.175" y2="-2.875" width="0.2032" layer="51"/>
<pad name="1" x="-2.54" y="-1.27" drill="1.016" diameter="1.8796" shape="square"/>
<pad name="2" x="-2.54" y="1.27" drill="1.016" diameter="1.8796" shape="octagon"/>
<pad name="3" x="0" y="-1.27" drill="1.016" diameter="1.8796" shape="octagon"/>
<pad name="4" x="0" y="1.27" drill="1.016" diameter="1.8796" shape="octagon"/>
<pad name="5" x="2.54" y="-1.27" drill="1.016" diameter="1.8796" shape="octagon"/>
<pad name="6" x="2.54" y="1.27" drill="1.016" diameter="1.8796" shape="octagon"/>
<text x="-3.81" y="3.175" size="1.27" layer="25" ratio="10">&gt;NAME</text>
<text x="-3.81" y="-4.445" size="1.27" layer="27">&gt;VALUE</text>
<rectangle x1="-2.794" y1="-1.524" x2="-2.286" y2="-1.016" layer="51"/>
<rectangle x1="-2.794" y1="1.016" x2="-2.286" y2="1.524" layer="51"/>
<rectangle x1="-0.254" y1="1.016" x2="0.254" y2="1.524" layer="51"/>
<rectangle x1="-0.254" y1="-1.524" x2="0.254" y2="-1.016" layer="51"/>
<rectangle x1="2.286" y1="1.016" x2="2.794" y2="1.524" layer="51"/>
<rectangle x1="2.286" y1="-1.524" x2="2.794" y2="-1.016" layer="51"/>
</package>
<package name="2X3_OFFSET">
<wire x1="-3.81" y1="-1.905" x2="-3.81" y2="1.905" width="0.2032" layer="21"/>
<wire x1="-1.27" y1="1.905" x2="-1.27" y2="-1.905" width="0.2032" layer="21"/>
<wire x1="1.27" y1="1.905" x2="1.27" y2="-1.905" width="0.2032" layer="21"/>
<wire x1="3.81" y1="1.905" x2="3.81" y2="-1.905" width="0.2032" layer="21"/>
<wire x1="-1.905" y1="-4.78" x2="-3.175" y2="-4.78" width="0.2032" layer="21"/>
<pad name="1" x="-2.54" y="-1.27" drill="1.1176" diameter="1.8796" shape="offset" rot="R270"/>
<pad name="2" x="-2.54" y="1.27" drill="1.1176" diameter="1.8796" shape="offset" rot="R90"/>
<pad name="3" x="0" y="-1.27" drill="1.1176" diameter="1.8796" shape="offset" rot="R270"/>
<pad name="4" x="0" y="1.27" drill="1.1176" diameter="1.8796" shape="offset" rot="R90"/>
<pad name="5" x="2.54" y="-1.27" drill="1.1176" diameter="1.8796" shape="offset" rot="R270"/>
<pad name="6" x="2.54" y="1.27" drill="1.1176" diameter="1.8796" shape="offset" rot="R90"/>
<text x="-4.445" y="-2.54" size="1.27" layer="25" ratio="10" rot="R90">&gt;NAME</text>
<text x="5.715" y="-3.175" size="1.27" layer="27" rot="R90">&gt;VALUE</text>
<rectangle x1="-2.794" y1="-1.524" x2="-2.286" y2="-1.016" layer="51"/>
<rectangle x1="-2.794" y1="1.016" x2="-2.286" y2="1.524" layer="51"/>
<rectangle x1="-0.254" y1="1.016" x2="0.254" y2="1.524" layer="51"/>
<rectangle x1="-0.254" y1="-1.524" x2="0.254" y2="-1.016" layer="51"/>
<rectangle x1="2.286" y1="1.016" x2="2.794" y2="1.524" layer="51"/>
<rectangle x1="2.286" y1="-1.524" x2="2.794" y2="-1.016" layer="51"/>
</package>
<package name="2X3_LOCK">
<wire x1="-1.27" y1="-0.635" x2="-0.635" y2="-1.27" width="0.2032" layer="21"/>
<wire x1="0.635" y1="-1.27" x2="1.27" y2="-0.635" width="0.2032" layer="21"/>
<wire x1="1.27" y1="-0.635" x2="1.905" y2="-1.27" width="0.2032" layer="21"/>
<wire x1="3.175" y1="-1.27" x2="3.81" y2="-0.635" width="0.2032" layer="21"/>
<wire x1="3.81" y1="-0.635" x2="4.445" y2="-1.27" width="0.2032" layer="21"/>
<wire x1="5.715" y1="-1.27" x2="6.35" y2="-0.635" width="0.2032" layer="21"/>
<wire x1="-1.27" y1="-0.635" x2="-1.27" y2="3.175" width="0.2032" layer="21"/>
<wire x1="-1.27" y1="3.175" x2="-0.635" y2="3.81" width="0.2032" layer="21"/>
<wire x1="-0.635" y1="3.81" x2="0.635" y2="3.81" width="0.2032" layer="21"/>
<wire x1="0.635" y1="3.81" x2="1.27" y2="3.175" width="0.2032" layer="21"/>
<wire x1="1.27" y1="3.175" x2="1.905" y2="3.81" width="0.2032" layer="21"/>
<wire x1="1.905" y1="3.81" x2="3.175" y2="3.81" width="0.2032" layer="21"/>
<wire x1="3.175" y1="3.81" x2="3.81" y2="3.175" width="0.2032" layer="21"/>
<wire x1="3.81" y1="3.175" x2="4.445" y2="3.81" width="0.2032" layer="21"/>
<wire x1="4.445" y1="3.81" x2="5.715" y2="3.81" width="0.2032" layer="21"/>
<wire x1="5.715" y1="3.81" x2="6.35" y2="3.175" width="0.2032" layer="21"/>
<wire x1="1.27" y1="3.175" x2="1.27" y2="-0.635" width="0.2032" layer="21"/>
<wire x1="3.81" y1="3.175" x2="3.81" y2="-0.635" width="0.2032" layer="21"/>
<wire x1="6.35" y1="3.175" x2="6.35" y2="-0.635" width="0.2032" layer="21"/>
<wire x1="4.445" y1="-1.27" x2="5.715" y2="-1.27" width="0.2032" layer="21"/>
<wire x1="1.905" y1="-1.27" x2="3.175" y2="-1.27" width="0.2032" layer="21"/>
<wire x1="-0.635" y1="-1.27" x2="0.635" y2="-1.27" width="0.2032" layer="21"/>
<wire x1="0.635" y1="-1.605" x2="-0.635" y2="-1.605" width="0.2032" layer="21"/>
<pad name="1" x="0" y="0" drill="1.016" diameter="1.8796" shape="octagon"/>
<pad name="2" x="0" y="2.54" drill="1.016" diameter="1.8796" shape="octagon"/>
<pad name="3" x="2.54" y="-0.254" drill="1.016" diameter="1.8796" shape="octagon"/>
<pad name="4" x="2.54" y="2.286" drill="1.016" diameter="1.8796" shape="octagon"/>
<pad name="5" x="5.08" y="0" drill="1.016" diameter="1.8796" shape="octagon"/>
<pad name="6" x="5.08" y="2.54" drill="1.016" diameter="1.8796" shape="octagon"/>
<text x="-1.27" y="4.445" size="1.27" layer="25" ratio="10">&gt;NAME</text>
<text x="-1.27" y="-3.175" size="1.27" layer="27">&gt;VALUE</text>
<rectangle x1="-0.254" y1="-0.254" x2="0.254" y2="0.254" layer="51"/>
<rectangle x1="-0.254" y1="2.286" x2="0.254" y2="2.794" layer="51"/>
<rectangle x1="2.286" y1="2.286" x2="2.794" y2="2.794" layer="51"/>
<rectangle x1="2.286" y1="-0.254" x2="2.794" y2="0.254" layer="51"/>
<rectangle x1="4.826" y1="2.286" x2="5.334" y2="2.794" layer="51"/>
<rectangle x1="4.826" y1="-0.254" x2="5.334" y2="0.254" layer="51"/>
</package>
</packages>
<symbols>
<symbol name="AVR_SPI_PROGRAMMER_6">
<wire x1="-5.08" y1="-5.08" x2="7.62" y2="-5.08" width="0.4064" layer="94"/>
<wire x1="7.62" y1="-5.08" x2="7.62" y2="5.08" width="0.4064" layer="94"/>
<wire x1="7.62" y1="5.08" x2="-5.08" y2="5.08" width="0.4064" layer="94"/>
<wire x1="-5.08" y1="5.08" x2="-5.08" y2="-5.08" width="0.4064" layer="94"/>
<text x="-4.318" y="5.842" size="1.778" layer="95">&gt;NAME</text>
<text x="-4.064" y="-7.62" size="1.778" layer="96">&gt;VALUE</text>
<text x="8.89" y="0.635" size="1.27" layer="94">MOSI</text>
<text x="-11.938" y="-2.032" size="1.27" layer="94">RESET</text>
<text x="-11.938" y="0.508" size="1.27" layer="94">SCK</text>
<text x="-11.938" y="3.302" size="1.27" layer="94">MISO</text>
<text x="8.89" y="3.048" size="1.27" layer="94">+5</text>
<text x="8.89" y="-2.032" size="1.27" layer="94">GND</text>
<pin name="1" x="-7.62" y="2.54" visible="pad" direction="pas" function="dot"/>
<pin name="2" x="10.16" y="2.54" visible="pad" direction="pas" function="dot" rot="R180"/>
<pin name="3" x="-7.62" y="0" visible="pad" direction="pas" function="dot"/>
<pin name="4" x="10.16" y="0" visible="pad" direction="pas" function="dot" rot="R180"/>
<pin name="5" x="-7.62" y="-2.54" visible="pad" direction="pas" function="dot"/>
<pin name="6" x="10.16" y="-2.54" visible="pad" direction="pas" function="dot" rot="R180"/>
</symbol>
</symbols>
<devicesets>
<deviceset name="AVR_SPI_PRG_6" prefix="J">
<description>&lt;b&gt;AVR ISP 6 Pin&lt;/b&gt;
This is the reduced ISP connector for AVR programming. Common on Arduino. This footprint will take up less PCB space and can be used with a 10-pin to 6-pin adapter such as SKU: BOB-08508</description>
<gates>
<gate name="G$1" symbol="AVR_SPI_PROGRAMMER_6" x="0" y="0"/>
</gates>
<devices>
<device name="PTH" package="2X3">
<connects>
<connect gate="G$1" pin="1" pad="1"/>
<connect gate="G$1" pin="2" pad="2"/>
<connect gate="G$1" pin="3" pad="3"/>
<connect gate="G$1" pin="4" pad="4"/>
<connect gate="G$1" pin="5" pad="5"/>
<connect gate="G$1" pin="6" pad="6"/>
</connects>
<technologies>
<technology name=""/>
</technologies>
</device>
<device name="NS" package="2X3-NS">
<connects>
<connect gate="G$1" pin="1" pad="1"/>
<connect gate="G$1" pin="2" pad="2"/>
<connect gate="G$1" pin="3" pad="3"/>
<connect gate="G$1" pin="4" pad="4"/>
<connect gate="G$1" pin="5" pad="5"/>
<connect gate="G$1" pin="6" pad="6"/>
</connects>
<technologies>
<technology name=""/>
</technologies>
</device>
<device name="OFFSET_PADS" package="2X3_OFFSET">
<connects>
<connect gate="G$1" pin="1" pad="1"/>
<connect gate="G$1" pin="2" pad="2"/>
<connect gate="G$1" pin="3" pad="3"/>
<connect gate="G$1" pin="4" pad="4"/>
<connect gate="G$1" pin="5" pad="5"/>
<connect gate="G$1" pin="6" pad="6"/>
</connects>
<technologies>
<technology name=""/>
</technologies>
</device>
<device name="2X3_LOCK" package="2X3_LOCK">
<connects>
<connect gate="G$1" pin="1" pad="1"/>
<connect gate="G$1" pin="2" pad="2"/>
<connect gate="G$1" pin="3" pad="3"/>
<connect gate="G$1" pin="4" pad="4"/>
<connect gate="G$1" pin="5" pad="5"/>
<connect gate="G$1" pin="6" pad="6"/>
</connects>
<technologies>
<technology name=""/>
</technologies>
</device>
</devices>
</deviceset>
</devicesets>
</library>
</libraries>
<attributes>
</attributes>
<variantdefs>
</variantdefs>
<classes>
<class number="0" name="default" width="0" drill="0">
</class>
</classes>
<parts>
<part name="U$1" library="SparkFun-Boards" deviceset="ARDUINO_R3_SHIELD" device="NOLABELS"/>
<part name="J1" library="SparkFun-Connectors" deviceset="AVR_SPI_PRG_6" device="NS"/>
</parts>
<sheets>
<sheet>
<plain>
</plain>
<instances>
<instance part="U$1" gate="G$1" x="30.48" y="66.04"/>
<instance part="J1" gate="G$1" x="68.58" y="81.28"/>
</instances>
<busses>
</busses>
<nets>
<net name="N$1" class="0">
<segment>
<pinref part="U$1" gate="G$1" pin="5V"/>
<wire x1="17.78" y1="55.88" x2="5.08" y2="55.88" width="0.1524" layer="91"/>
<wire x1="5.08" y1="55.88" x2="5.08" y2="38.1" width="0.1524" layer="91"/>
<wire x1="5.08" y1="38.1" x2="86.36" y2="38.1" width="0.1524" layer="91"/>
<wire x1="86.36" y1="38.1" x2="86.36" y2="83.82" width="0.1524" layer="91"/>
<pinref part="J1" gate="G$1" pin="2"/>
<wire x1="86.36" y1="83.82" x2="78.74" y2="83.82" width="0.1524" layer="91"/>
</segment>
</net>
<net name="N$2" class="0">
<segment>
<pinref part="J1" gate="G$1" pin="6"/>
<wire x1="78.74" y1="78.74" x2="83.82" y2="78.74" width="0.1524" layer="91"/>
<wire x1="83.82" y1="78.74" x2="83.82" y2="17.78" width="0.1524" layer="91"/>
<wire x1="83.82" y1="17.78" x2="15.24" y2="17.78" width="0.1524" layer="91"/>
<wire x1="15.24" y1="17.78" x2="15.24" y2="43.18" width="0.1524" layer="91"/>
<pinref part="U$1" gate="G$1" pin="GND@0"/>
<wire x1="17.78" y1="43.18" x2="15.24" y2="43.18" width="0.1524" layer="91"/>
</segment>
</net>
<net name="N$3" class="0">
<segment>
<pinref part="U$1" gate="G$1" pin="*D10"/>
<wire x1="43.18" y1="55.88" x2="55.88" y2="55.88" width="0.1524" layer="91"/>
<wire x1="55.88" y1="55.88" x2="55.88" y2="78.74" width="0.1524" layer="91"/>
<pinref part="J1" gate="G$1" pin="5"/>
<wire x1="55.88" y1="78.74" x2="60.96" y2="78.74" width="0.1524" layer="91"/>
</segment>
</net>
<net name="N$4" class="0">
<segment>
<pinref part="J1" gate="G$1" pin="3"/>
<wire x1="60.96" y1="81.28" x2="53.34" y2="81.28" width="0.1524" layer="91"/>
<wire x1="53.34" y1="81.28" x2="53.34" y2="48.26" width="0.1524" layer="91"/>
<pinref part="U$1" gate="G$1" pin="D13"/>
<wire x1="53.34" y1="48.26" x2="43.18" y2="48.26" width="0.1524" layer="91"/>
</segment>
</net>
<net name="N$5" class="0">
<segment>
<pinref part="J1" gate="G$1" pin="1"/>
<wire x1="60.96" y1="83.82" x2="50.8" y2="83.82" width="0.1524" layer="91"/>
<wire x1="50.8" y1="83.82" x2="50.8" y2="50.8" width="0.1524" layer="91"/>
<pinref part="U$1" gate="G$1" pin="D12"/>
<wire x1="50.8" y1="50.8" x2="43.18" y2="50.8" width="0.1524" layer="91"/>
</segment>
</net>
<net name="N$6" class="0">
<segment>
<pinref part="J1" gate="G$1" pin="4"/>
<wire x1="78.74" y1="81.28" x2="78.74" y2="53.34" width="0.1524" layer="91"/>
<pinref part="U$1" gate="G$1" pin="*D11"/>
<wire x1="78.74" y1="53.34" x2="43.18" y2="53.34" width="0.1524" layer="91"/>
</segment>
</net>
</nets>
</sheet>
</sheets>
</schematic>
</drawing>
</eagle>
