<?xml version="1.0" encoding="utf-8"?>
<!DOCTYPE eagle SYSTEM "eagle.dtd">
<eagle version="6.5.0">
<drawing>
<settings>
<setting alwaysvectorfont="no"/>
<setting verticaltext="up"/>
</settings>
<grid distance="25" unitdist="mic" unit="mm" style="lines" multiple="1" display="yes" altdistance="0.0125" altunitdist="mm" altunit="mm"/>
<layers>
<layer number="1" name="Top" color="4" fill="1" visible="yes" active="yes"/>
<layer number="16" name="Bottom" color="1" fill="1" visible="yes" active="yes"/>
<layer number="17" name="Pads" color="2" fill="1" visible="yes" active="yes"/>
<layer number="18" name="Vias" color="2" fill="1" visible="yes" active="yes"/>
<layer number="19" name="Unrouted" color="6" fill="1" visible="yes" active="yes"/>
<layer number="20" name="Dimension" color="15" fill="1" visible="yes" active="yes"/>
<layer number="21" name="tPlace" color="7" fill="1" visible="yes" active="yes"/>
<layer number="22" name="bPlace" color="7" fill="1" visible="yes" active="yes"/>
<layer number="23" name="tOrigins" color="15" fill="1" visible="yes" active="yes"/>
<layer number="24" name="bOrigins" color="15" fill="1" visible="yes" active="yes"/>
<layer number="25" name="tNames" color="7" fill="1" visible="yes" active="yes"/>
<layer number="26" name="bNames" color="7" fill="1" visible="yes" active="yes"/>
<layer number="27" name="tValues" color="7" fill="1" visible="yes" active="yes"/>
<layer number="28" name="bValues" color="7" fill="1" visible="yes" active="yes"/>
<layer number="29" name="tStop" color="7" fill="3" visible="no" active="yes"/>
<layer number="30" name="bStop" color="7" fill="6" visible="no" active="yes"/>
<layer number="31" name="tCream" color="7" fill="4" visible="no" active="yes"/>
<layer number="32" name="bCream" color="7" fill="5" visible="no" active="yes"/>
<layer number="33" name="tFinish" color="6" fill="3" visible="no" active="yes"/>
<layer number="34" name="bFinish" color="6" fill="6" visible="no" active="yes"/>
<layer number="35" name="tGlue" color="7" fill="4" visible="no" active="yes"/>
<layer number="36" name="bGlue" color="7" fill="5" visible="no" active="yes"/>
<layer number="37" name="tTest" color="7" fill="1" visible="no" active="yes"/>
<layer number="38" name="bTest" color="7" fill="1" visible="no" active="yes"/>
<layer number="39" name="tKeepout" color="4" fill="11" visible="no" active="yes"/>
<layer number="40" name="bKeepout" color="1" fill="11" visible="no" active="yes"/>
<layer number="41" name="tRestrict" color="4" fill="10" visible="no" active="yes"/>
<layer number="42" name="bRestrict" color="1" fill="10" visible="no" active="yes"/>
<layer number="43" name="vRestrict" color="2" fill="10" visible="no" active="yes"/>
<layer number="44" name="Drills" color="7" fill="1" visible="no" active="yes"/>
<layer number="45" name="Holes" color="7" fill="1" visible="no" active="yes"/>
<layer number="46" name="Milling" color="3" fill="1" visible="no" active="yes"/>
<layer number="47" name="Measures" color="7" fill="1" visible="no" active="yes"/>
<layer number="48" name="Document" color="7" fill="1" visible="no" active="yes"/>
<layer number="49" name="Reference" color="7" fill="1" visible="no" active="yes"/>
<layer number="50" name="dxf" color="7" fill="1" visible="no" active="no"/>
<layer number="51" name="tDocu" color="7" fill="1" visible="no" active="yes"/>
<layer number="52" name="bDocu" color="7" fill="1" visible="no" active="yes"/>
<layer number="53" name="tGND_GNDA" color="7" fill="9" visible="no" active="no"/>
<layer number="54" name="bGND_GNDA" color="1" fill="9" visible="no" active="no"/>
<layer number="56" name="wert" color="7" fill="1" visible="no" active="no"/>
<layer number="57" name="tCAD" color="7" fill="1" visible="no" active="no"/>
<layer number="91" name="Nets" color="2" fill="1" visible="no" active="no"/>
<layer number="92" name="Busses" color="1" fill="1" visible="no" active="no"/>
<layer number="93" name="Pins" color="2" fill="1" visible="no" active="no"/>
<layer number="94" name="Symbols" color="4" fill="1" visible="no" active="no"/>
<layer number="95" name="Names" color="7" fill="1" visible="no" active="no"/>
<layer number="96" name="Values" color="7" fill="1" visible="no" active="no"/>
<layer number="97" name="Info" color="7" fill="1" visible="no" active="no"/>
<layer number="98" name="Guide" color="6" fill="1" visible="no" active="no"/>
<layer number="100" name="Muster" color="7" fill="1" visible="no" active="no"/>
<layer number="101" name="Patch_Top" color="12" fill="4" visible="no" active="yes"/>
<layer number="102" name="Vscore" color="7" fill="1" visible="no" active="yes"/>
<layer number="103" name="fp3" color="7" fill="1" visible="no" active="yes"/>
<layer number="104" name="Name" color="7" fill="1" visible="no" active="yes"/>
<layer number="105" name="Beschreib" color="9" fill="1" visible="no" active="yes"/>
<layer number="106" name="BGA-Top" color="4" fill="1" visible="no" active="yes"/>
<layer number="107" name="BD-Top" color="5" fill="1" visible="no" active="yes"/>
<layer number="108" name="fp8" color="7" fill="1" visible="no" active="yes"/>
<layer number="109" name="fp9" color="7" fill="1" visible="no" active="yes"/>
<layer number="110" name="fp0" color="7" fill="1" visible="no" active="yes"/>
<layer number="111" name="LPC17xx" color="7" fill="1" visible="yes" active="yes"/>
<layer number="112" name="tSilk" color="7" fill="1" visible="yes" active="yes"/>
<layer number="116" name="centerDrill" color="9" fill="4" visible="yes" active="yes"/>
<layer number="121" name="_tsilk" color="7" fill="1" visible="yes" active="yes"/>
<layer number="122" name="_bsilk" color="7" fill="1" visible="yes" active="yes"/>
<layer number="123" name="tTestmark" color="7" fill="1" visible="no" active="yes"/>
<layer number="124" name="bTestmark" color="7" fill="1" visible="no" active="yes"/>
<layer number="125" name="_tNames" color="7" fill="1" visible="yes" active="yes"/>
<layer number="126" name="_bNames" color="7" fill="1" visible="yes" active="yes"/>
<layer number="127" name="_tValues" color="7" fill="1" visible="yes" active="yes"/>
<layer number="128" name="_bValues" color="7" fill="1" visible="yes" active="yes"/>
<layer number="131" name="tAdjust" color="7" fill="1" visible="no" active="yes"/>
<layer number="132" name="bAdjust" color="7" fill="1" visible="no" active="yes"/>
<layer number="144" name="Drill_legend" color="7" fill="1" visible="yes" active="yes"/>
<layer number="150" name="Notes" color="7" fill="1" visible="no" active="yes"/>
<layer number="151" name="HeatSink" color="7" fill="1" visible="yes" active="yes"/>
<layer number="152" name="_bDocu" color="7" fill="1" visible="yes" active="yes"/>
<layer number="153" name="FabDoc1" color="6" fill="1" visible="no" active="no"/>
<layer number="154" name="FabDoc2" color="2" fill="1" visible="no" active="no"/>
<layer number="155" name="FabDoc3" color="7" fill="15" visible="no" active="no"/>
<layer number="199" name="Contour" color="7" fill="1" visible="yes" active="yes"/>
<layer number="200" name="200bmp" color="1" fill="10" visible="yes" active="yes"/>
<layer number="201" name="201bmp" color="2" fill="1" visible="no" active="no"/>
<layer number="202" name="202bmp" color="3" fill="1" visible="no" active="no"/>
<layer number="203" name="203bmp" color="4" fill="10" visible="yes" active="yes"/>
<layer number="204" name="204bmp" color="5" fill="10" visible="yes" active="yes"/>
<layer number="205" name="205bmp" color="6" fill="10" visible="yes" active="yes"/>
<layer number="206" name="206bmp" color="7" fill="10" visible="yes" active="yes"/>
<layer number="207" name="207bmp" color="8" fill="10" visible="yes" active="yes"/>
<layer number="208" name="208bmp" color="9" fill="10" visible="yes" active="yes"/>
<layer number="209" name="209bmp" color="7" fill="1" visible="no" active="yes"/>
<layer number="210" name="210bmp" color="7" fill="1" visible="no" active="yes"/>
<layer number="211" name="211bmp" color="7" fill="1" visible="yes" active="yes"/>
<layer number="212" name="212bmp" color="7" fill="1" visible="yes" active="yes"/>
<layer number="213" name="213bmp" color="7" fill="1" visible="yes" active="yes"/>
<layer number="214" name="214bmp" color="7" fill="1" visible="yes" active="yes"/>
<layer number="215" name="215bmp" color="7" fill="1" visible="yes" active="yes"/>
<layer number="216" name="216bmp" color="7" fill="1" visible="yes" active="yes"/>
<layer number="217" name="217bmp" color="18" fill="1" visible="no" active="no"/>
<layer number="218" name="218bmp" color="19" fill="1" visible="no" active="no"/>
<layer number="219" name="219bmp" color="20" fill="1" visible="no" active="no"/>
<layer number="220" name="220bmp" color="21" fill="1" visible="no" active="no"/>
<layer number="221" name="221bmp" color="22" fill="1" visible="no" active="no"/>
<layer number="222" name="222bmp" color="23" fill="1" visible="no" active="no"/>
<layer number="223" name="223bmp" color="24" fill="1" visible="no" active="no"/>
<layer number="224" name="224bmp" color="25" fill="1" visible="no" active="no"/>
<layer number="248" name="Housing" color="7" fill="1" visible="yes" active="yes"/>
<layer number="249" name="Edge" color="7" fill="1" visible="yes" active="yes"/>
<layer number="250" name="Descript" color="7" fill="1" visible="no" active="no"/>
<layer number="251" name="SMDround" color="7" fill="1" visible="no" active="no"/>
<layer number="254" name="cooling" color="7" fill="1" visible="yes" active="yes"/>
</layers>
<board>
<plain>
<wire x1="0" y1="-0.025" x2="38.515" y2="-0.05" width="0" layer="20"/>
<wire x1="38.515" y1="-0.05" x2="38.515" y2="19.48" width="0" layer="20"/>
<wire x1="38.515" y1="19.48" x2="0" y2="19.48" width="0" layer="20"/>
<wire x1="0" y1="19.48" x2="0" y2="-0.025" width="0" layer="20"/>
<circle x="35.25" y="13.75" radius="0.429" width="0.258" layer="116"/>
<circle x="35.25" y="16.29" radius="0.429" width="0.258" layer="116"/>
<circle x="22.55" y="3.275" radius="0.429" width="0.258" layer="116"/>
<circle x="25.09" y="3.275" radius="0.429" width="0.258" layer="116"/>
<circle x="27.63" y="3.275" radius="0.429" width="0.258" layer="116"/>
<circle x="30.17" y="3.275" radius="0.429" width="0.258" layer="116"/>
<circle x="32.71" y="3.275" radius="0.429" width="0.258" layer="116"/>
<circle x="35.25" y="3.275" radius="0.429" width="0.258" layer="116"/>
<circle x="35.25" y="13.75" radius="0.429" width="0.258" layer="116"/>
<circle x="35.25" y="16.29" radius="0.429" width="0.258" layer="116"/>
<circle x="22.55" y="3.275" radius="0.429" width="0.258" layer="116"/>
<circle x="25.09" y="3.275" radius="0.429" width="0.258" layer="116"/>
<circle x="27.63" y="3.275" radius="0.429" width="0.258" layer="116"/>
<circle x="30.17" y="3.275" radius="0.429" width="0.258" layer="116"/>
<circle x="32.71" y="3.275" radius="0.429" width="0.258" layer="116"/>
<circle x="35.25" y="3.275" radius="0.429" width="0.258" layer="116"/>
<circle x="35.25" y="13.75" radius="0.429" width="0.258" layer="116"/>
<circle x="35.25" y="16.29" radius="0.429" width="0.258" layer="116"/>
<circle x="22.55" y="3.275" radius="0.429" width="0.258" layer="116"/>
<circle x="25.09" y="3.275" radius="0.429" width="0.258" layer="116"/>
<circle x="27.63" y="3.275" radius="0.429" width="0.258" layer="116"/>
<circle x="30.17" y="3.275" radius="0.429" width="0.258" layer="116"/>
<circle x="32.71" y="3.275" radius="0.429" width="0.258" layer="116"/>
<circle x="35.25" y="3.275" radius="0.429" width="0.258" layer="116"/>
<circle x="2.2" y="2.475" radius="0.429" width="0.258" layer="116"/>
<circle x="2.2" y="5.015" radius="0.429" width="0.258" layer="116"/>
<circle x="2.2" y="7.555" radius="0.429" width="0.258" layer="116"/>
<circle x="2.2" y="10.095" radius="0.429" width="0.258" layer="116"/>
<circle x="2.2" y="12.635" radius="0.429" width="0.258" layer="116"/>
<circle x="2.2" y="15.175" radius="0.429" width="0.258" layer="116"/>
<circle x="13.175" y="2.6" radius="0.429" width="0.258" layer="116"/>
<circle x="13.179" y="5.14" radius="0.429" width="0.258" layer="116"/>
<circle x="13.184" y="7.68" radius="0.429" width="0.258" layer="116"/>
<circle x="13.188" y="10.22" radius="0.429" width="0.258" layer="116"/>
<circle x="13.193" y="12.76" radius="0.429" width="0.258" layer="116"/>
<circle x="13.197" y="15.3" radius="0.429" width="0.258" layer="116"/>
<circle x="4.75" y="15.2" radius="0.429" width="0.258" layer="116"/>
<circle x="4.75" y="12.66" radius="0.429" width="0.258" layer="116"/>
<circle x="4.75" y="10.12" radius="0.429" width="0.258" layer="116"/>
<circle x="4.75" y="7.58" radius="0.429" width="0.258" layer="116"/>
<circle x="4.75" y="5.04" radius="0.429" width="0.258" layer="116"/>
<circle x="4.75" y="2.5" radius="0.429" width="0.258" layer="116"/>
<circle x="10.35" y="2.55" radius="0.429" width="0.258" layer="116"/>
<circle x="10.35" y="5.09" radius="0.429" width="0.258" layer="116"/>
<circle x="10.35" y="7.63" radius="0.429" width="0.258" layer="116"/>
<circle x="10.35" y="10.17" radius="0.429" width="0.258" layer="116"/>
<circle x="10.35" y="12.71" radius="0.429" width="0.258" layer="116"/>
<circle x="10.35" y="15.25" radius="0.429" width="0.258" layer="116"/>
<circle x="7.6" y="15.225" radius="0.429" width="0.258" layer="116"/>
<circle x="7.6" y="12.685" radius="0.429" width="0.258" layer="116"/>
<circle x="7.6" y="10.145" radius="0.429" width="0.258" layer="116"/>
<circle x="7.6" y="7.605" radius="0.429" width="0.258" layer="116"/>
<circle x="7.6" y="5.065" radius="0.429" width="0.258" layer="116"/>
<circle x="7.6" y="2.525" radius="0.429" width="0.258" layer="116"/>
<circle x="35.25" y="13.75" radius="0.429" width="0.258" layer="116"/>
<circle x="35.25" y="16.29" radius="0.429" width="0.258" layer="116"/>
<circle x="22.55" y="3.275" radius="0.429" width="0.258" layer="116"/>
<circle x="25.09" y="3.275" radius="0.429" width="0.258" layer="116"/>
<circle x="27.63" y="3.275" radius="0.429" width="0.258" layer="116"/>
<circle x="30.17" y="3.275" radius="0.429" width="0.258" layer="116"/>
<circle x="32.71" y="3.275" radius="0.429" width="0.258" layer="116"/>
<circle x="35.25" y="3.275" radius="0.429" width="0.258" layer="116"/>
<circle x="15.75" y="15.285" radius="0.429" width="0.258" layer="116"/>
<circle x="18.29" y="15.285" radius="0.429" width="0.258" layer="116"/>
<circle x="20.83" y="15.285" radius="0.429" width="0.258" layer="116"/>
</plain>
<libraries>
<library name="atmel">
<description>&lt;b&gt;AVR Devices&lt;/b&gt;&lt;p&gt;
Configurable logic, microcontrollers, nonvolatile memories&lt;p&gt;
Based on the following sources:&lt;p&gt;
&lt;ul&gt;
&lt;li&gt;www.atmel.com
&lt;li&gt;CD-ROM : Configurable Logic Microcontroller Nonvolatile Memory
&lt;li&gt;CadSoft download site, www.cadsoft.de or www.cadsoftusa.com , file at90smcu_v400.zip
&lt;li&gt;avr.lbr
&lt;/ul&gt;
&lt;author&gt;Revised by librarian@cadsoft.de&lt;/author&gt;</description>
<packages>
<package name="SOIC8">
<description>&lt;B&gt;Wide Plastic Gull Wing Small Outline Package&lt;/B&gt;</description>
<wire x1="-2.6" y1="2.25" x2="-2.35" y2="2.5" width="0.1524" layer="21" curve="-90"/>
<wire x1="2.35" y1="2.5" x2="2.6" y2="2.25" width="0.1524" layer="21" curve="-90"/>
<wire x1="2.35" y1="-2.5" x2="2.6" y2="-2.25" width="0.1524" layer="21" curve="90"/>
<wire x1="-2.6" y1="-2.25" x2="-2.35" y2="-2.5" width="0.1524" layer="21" curve="90"/>
<wire x1="2.36" y1="-2.5" x2="-2.34" y2="-2.5" width="0.1524" layer="51"/>
<wire x1="-2.34" y1="2.5" x2="2.36" y2="2.5" width="0.1524" layer="51"/>
<wire x1="-2.21" y1="2.5" x2="-2.34" y2="2.5" width="0.1524" layer="21"/>
<wire x1="-1.59" y1="2.5" x2="-0.95" y2="2.5" width="0.1524" layer="21"/>
<wire x1="-0.32" y1="2.5" x2="0.32" y2="2.5" width="0.1524" layer="21"/>
<wire x1="0.95" y1="2.5" x2="1.59" y2="2.5" width="0.1524" layer="21"/>
<wire x1="2.21" y1="2.5" x2="2.36" y2="2.5" width="0.1524" layer="21"/>
<wire x1="2.2" y1="-2.5" x2="2.33" y2="-2.5" width="0.1524" layer="21"/>
<wire x1="1.59" y1="-2.5" x2="0.94" y2="-2.5" width="0.1524" layer="21"/>
<wire x1="0.32" y1="-2.5" x2="-0.33" y2="-2.5" width="0.1524" layer="21"/>
<wire x1="-0.95" y1="-2.5" x2="-1.59" y2="-2.5" width="0.1524" layer="21"/>
<wire x1="-2.21" y1="-2.5" x2="-2.34" y2="-2.5" width="0.1524" layer="21"/>
<wire x1="-2.6" y1="2.25" x2="-2.6" y2="-2.24" width="0.1524" layer="21"/>
<wire x1="2.6" y1="-2.25" x2="2.6" y2="2.25" width="0.1524" layer="21"/>
<circle x="-1.42" y="-1.115" radius="0.5" width="0.0508" layer="21"/>
<smd name="1" x="-1.905" y="-3.154" dx="0.5" dy="2.2" layer="1"/>
<smd name="2" x="-0.645" y="-3.154" dx="0.5" dy="2.2" layer="1"/>
<smd name="3" x="0.625" y="-3.154" dx="0.5" dy="2.2" layer="1"/>
<smd name="4" x="1.895" y="-3.154" dx="0.5" dy="2.2" layer="1"/>
<smd name="8" x="-1.905" y="3.154" dx="0.5" dy="2.2" layer="1"/>
<smd name="7" x="-0.635" y="3.154" dx="0.5" dy="2.2" layer="1"/>
<smd name="6" x="0.635" y="3.154" dx="0.5" dy="2.2" layer="1"/>
<smd name="5" x="1.905" y="3.154" dx="0.5" dy="2.2" layer="1"/>
<text x="-2.8575" y="-2.159" size="1.27" layer="25" ratio="10" rot="R90">&gt;NAME</text>
<text x="4.064" y="-2.159" size="1.27" layer="27" ratio="10" rot="R90">&gt;VALUE</text>
<rectangle x1="-2.08" y1="2.5" x2="-1.73" y2="3.4" layer="51"/>
<rectangle x1="-0.81" y1="2.5" x2="-0.46" y2="3.4" layer="51"/>
<rectangle x1="0.46" y1="2.5" x2="0.81" y2="3.4" layer="51"/>
<rectangle x1="1.73" y1="2.5" x2="2.08" y2="3.4" layer="51"/>
<rectangle x1="1.72" y1="-3.4" x2="2.07" y2="-2.5" layer="51"/>
<rectangle x1="0.45" y1="-3.4" x2="0.8" y2="-2.5" layer="51"/>
<rectangle x1="-0.82" y1="-3.4" x2="-0.47" y2="-2.5" layer="51"/>
<rectangle x1="-2.08" y1="-3.4" x2="-1.73" y2="-2.5" layer="51"/>
</package>
</packages>
</library>
<library name="adafruit">
<packages>
<package name="M1206">
<description>&lt;b&gt;RESISTOR&lt;/b&gt;&lt;p&gt;
MELF 0.25 W</description>
<wire x1="-2.473" y1="1.483" x2="2.473" y2="1.483" width="0.0508" layer="39"/>
<wire x1="2.473" y1="-1.483" x2="-2.473" y2="-1.483" width="0.0508" layer="39"/>
<wire x1="-2.473" y1="-1.483" x2="-2.473" y2="1.483" width="0.0508" layer="39"/>
<wire x1="2.473" y1="1.483" x2="2.473" y2="-1.483" width="0.0508" layer="39"/>
<wire x1="1.143" y1="0.8382" x2="-1.143" y2="0.8382" width="0.1524" layer="51"/>
<wire x1="1.143" y1="-0.8382" x2="-1.143" y2="-0.8382" width="0.1524" layer="51"/>
<smd name="1" x="-1.4" y="0" dx="1.6" dy="2" layer="1"/>
<smd name="2" x="1.4" y="0" dx="1.6" dy="2" layer="1"/>
<text x="-1.27" y="1.27" size="1.27" layer="25">&gt;NAME</text>
<text x="-1.27" y="-2.54" size="1.27" layer="27">&gt;VALUE</text>
<rectangle x1="-1.7018" y1="-0.9144" x2="-1.1176" y2="0.9144" layer="51"/>
<rectangle x1="1.1176" y1="-0.9144" x2="1.7018" y2="0.9144" layer="51"/>
<rectangle x1="-0.3" y1="-0.8001" x2="0.3" y2="0.8001" layer="35"/>
</package>
</packages>
</library>
<library name="SparkFun-Connectors">
<description>&lt;h3&gt;SparkFun Electronics' preferred foot prints&lt;/h3&gt;
In this library you'll find connectors and sockets- basically anything that can be plugged into or onto.&lt;br&gt;&lt;br&gt;
We've spent an enormous amount of time creating and checking these footprints and parts, but it is the end user's responsibility to ensure correctness and suitablity for a given componet or application. If you enjoy using this library, please buy one of our products at www.sparkfun.com.
&lt;br&gt;&lt;br&gt;
&lt;b&gt;Licensing:&lt;/b&gt; CC v3.0 Share-Alike You are welcome to use this library for commercial purposes. For attribution, we ask that when you begin to sell your device using our footprint, you email us with a link to the product being sold. We want bragging rights that we helped (in a very small part) to create your 8th world wonder. We would like the opportunity to feature your device on our homepage.</description>
<packages>
<package name="1X03_NO_SILK">
<pad name="1" x="0" y="0" drill="1.016" diameter="1.8796" rot="R90"/>
<pad name="2" x="2.54" y="0" drill="1.016" diameter="1.8796" rot="R90"/>
<pad name="3" x="5.08" y="0" drill="1.016" diameter="1.8796" rot="R90"/>
<text x="-1.3462" y="1.8288" size="1.27" layer="25" ratio="10">&gt;NAME</text>
<text x="-1.27" y="-3.175" size="1.27" layer="27">&gt;VALUE</text>
<rectangle x1="4.826" y1="-0.254" x2="5.334" y2="0.254" layer="51"/>
<rectangle x1="2.286" y1="-0.254" x2="2.794" y2="0.254" layer="51"/>
<rectangle x1="-0.254" y1="-0.254" x2="0.254" y2="0.254" layer="51"/>
</package>
<package name="1X02">
<wire x1="-0.635" y1="1.27" x2="0.635" y2="1.27" width="0.2032" layer="21"/>
<wire x1="0.635" y1="1.27" x2="1.27" y2="0.635" width="0.2032" layer="21"/>
<wire x1="1.27" y1="-0.635" x2="0.635" y2="-1.27" width="0.2032" layer="21"/>
<wire x1="1.27" y1="0.635" x2="1.905" y2="1.27" width="0.2032" layer="21"/>
<wire x1="1.905" y1="1.27" x2="3.175" y2="1.27" width="0.2032" layer="21"/>
<wire x1="3.175" y1="1.27" x2="3.81" y2="0.635" width="0.2032" layer="21"/>
<wire x1="3.81" y1="-0.635" x2="3.175" y2="-1.27" width="0.2032" layer="21"/>
<wire x1="3.175" y1="-1.27" x2="1.905" y2="-1.27" width="0.2032" layer="21"/>
<wire x1="1.905" y1="-1.27" x2="1.27" y2="-0.635" width="0.2032" layer="21"/>
<wire x1="-1.27" y1="0.635" x2="-1.27" y2="-0.635" width="0.2032" layer="21"/>
<wire x1="-0.635" y1="1.27" x2="-1.27" y2="0.635" width="0.2032" layer="21"/>
<wire x1="-1.27" y1="-0.635" x2="-0.635" y2="-1.27" width="0.2032" layer="21"/>
<wire x1="0.635" y1="-1.27" x2="-0.635" y2="-1.27" width="0.2032" layer="21"/>
<wire x1="3.81" y1="0.635" x2="3.81" y2="-0.635" width="0.2032" layer="21"/>
<pad name="1" x="0" y="0" drill="1.016" diameter="1.8796" rot="R90"/>
<pad name="2" x="2.54" y="0" drill="1.016" diameter="1.8796" rot="R90"/>
<text x="-1.3462" y="1.8288" size="1.27" layer="25" ratio="10">&gt;NAME</text>
<text x="-1.27" y="-3.175" size="1.27" layer="27">&gt;VALUE</text>
<rectangle x1="2.286" y1="-0.254" x2="2.794" y2="0.254" layer="51"/>
<rectangle x1="-0.254" y1="-0.254" x2="0.254" y2="0.254" layer="51"/>
</package>
<package name="1X06">
<wire x1="11.43" y1="0.635" x2="12.065" y2="1.27" width="0.2032" layer="21"/>
<wire x1="12.065" y1="1.27" x2="13.335" y2="1.27" width="0.2032" layer="21"/>
<wire x1="13.335" y1="1.27" x2="13.97" y2="0.635" width="0.2032" layer="21"/>
<wire x1="13.97" y1="-0.635" x2="13.335" y2="-1.27" width="0.2032" layer="21"/>
<wire x1="13.335" y1="-1.27" x2="12.065" y2="-1.27" width="0.2032" layer="21"/>
<wire x1="12.065" y1="-1.27" x2="11.43" y2="-0.635" width="0.2032" layer="21"/>
<wire x1="6.985" y1="1.27" x2="8.255" y2="1.27" width="0.2032" layer="21"/>
<wire x1="8.255" y1="1.27" x2="8.89" y2="0.635" width="0.2032" layer="21"/>
<wire x1="8.89" y1="-0.635" x2="8.255" y2="-1.27" width="0.2032" layer="21"/>
<wire x1="8.89" y1="0.635" x2="9.525" y2="1.27" width="0.2032" layer="21"/>
<wire x1="9.525" y1="1.27" x2="10.795" y2="1.27" width="0.2032" layer="21"/>
<wire x1="10.795" y1="1.27" x2="11.43" y2="0.635" width="0.2032" layer="21"/>
<wire x1="11.43" y1="-0.635" x2="10.795" y2="-1.27" width="0.2032" layer="21"/>
<wire x1="10.795" y1="-1.27" x2="9.525" y2="-1.27" width="0.2032" layer="21"/>
<wire x1="9.525" y1="-1.27" x2="8.89" y2="-0.635" width="0.2032" layer="21"/>
<wire x1="3.81" y1="0.635" x2="4.445" y2="1.27" width="0.2032" layer="21"/>
<wire x1="4.445" y1="1.27" x2="5.715" y2="1.27" width="0.2032" layer="21"/>
<wire x1="5.715" y1="1.27" x2="6.35" y2="0.635" width="0.2032" layer="21"/>
<wire x1="6.35" y1="-0.635" x2="5.715" y2="-1.27" width="0.2032" layer="21"/>
<wire x1="5.715" y1="-1.27" x2="4.445" y2="-1.27" width="0.2032" layer="21"/>
<wire x1="4.445" y1="-1.27" x2="3.81" y2="-0.635" width="0.2032" layer="21"/>
<wire x1="6.985" y1="1.27" x2="6.35" y2="0.635" width="0.2032" layer="21"/>
<wire x1="6.35" y1="-0.635" x2="6.985" y2="-1.27" width="0.2032" layer="21"/>
<wire x1="8.255" y1="-1.27" x2="6.985" y2="-1.27" width="0.2032" layer="21"/>
<wire x1="-0.635" y1="1.27" x2="0.635" y2="1.27" width="0.2032" layer="21"/>
<wire x1="0.635" y1="1.27" x2="1.27" y2="0.635" width="0.2032" layer="21"/>
<wire x1="1.27" y1="-0.635" x2="0.635" y2="-1.27" width="0.2032" layer="21"/>
<wire x1="1.27" y1="0.635" x2="1.905" y2="1.27" width="0.2032" layer="21"/>
<wire x1="1.905" y1="1.27" x2="3.175" y2="1.27" width="0.2032" layer="21"/>
<wire x1="3.175" y1="1.27" x2="3.81" y2="0.635" width="0.2032" layer="21"/>
<wire x1="3.81" y1="-0.635" x2="3.175" y2="-1.27" width="0.2032" layer="21"/>
<wire x1="3.175" y1="-1.27" x2="1.905" y2="-1.27" width="0.2032" layer="21"/>
<wire x1="1.905" y1="-1.27" x2="1.27" y2="-0.635" width="0.2032" layer="21"/>
<wire x1="-1.27" y1="0.635" x2="-1.27" y2="-0.635" width="0.2032" layer="21"/>
<wire x1="-0.635" y1="1.27" x2="-1.27" y2="0.635" width="0.2032" layer="21"/>
<wire x1="-1.27" y1="-0.635" x2="-0.635" y2="-1.27" width="0.2032" layer="21"/>
<wire x1="0.635" y1="-1.27" x2="-0.635" y2="-1.27" width="0.2032" layer="21"/>
<wire x1="13.97" y1="0.635" x2="13.97" y2="-0.635" width="0.2032" layer="21"/>
<pad name="1" x="0" y="0" drill="1.016" diameter="1.8796" rot="R90"/>
<pad name="2" x="2.54" y="0" drill="1.016" diameter="1.8796" rot="R90"/>
<pad name="3" x="5.08" y="0" drill="1.016" diameter="1.8796" rot="R90"/>
<pad name="4" x="7.62" y="0" drill="1.016" diameter="1.8796" rot="R90"/>
<pad name="5" x="10.16" y="0" drill="1.016" diameter="1.8796" rot="R90"/>
<pad name="6" x="12.7" y="0" drill="1.016" diameter="1.8796" rot="R90"/>
<text x="-1.3462" y="1.8288" size="1.27" layer="25" ratio="10">&gt;NAME</text>
<text x="-1.27" y="-3.175" size="1.27" layer="27">&gt;VALUE</text>
<rectangle x1="12.446" y1="-0.254" x2="12.954" y2="0.254" layer="51"/>
<rectangle x1="9.906" y1="-0.254" x2="10.414" y2="0.254" layer="51"/>
<rectangle x1="7.366" y1="-0.254" x2="7.874" y2="0.254" layer="51"/>
<rectangle x1="4.826" y1="-0.254" x2="5.334" y2="0.254" layer="51"/>
<rectangle x1="2.286" y1="-0.254" x2="2.794" y2="0.254" layer="51"/>
<rectangle x1="-0.254" y1="-0.254" x2="0.254" y2="0.254" layer="51"/>
</package>
</packages>
</library>
<library name="transistor-npn">
<description>&lt;b&gt;NPN Transistors&lt;/b&gt;&lt;p&gt;
&lt;author&gt;Created by librarian@cadsoft.de&lt;/author&gt;</description>
<packages>
<package name="SOT23-BEC">
<description>TO-236 ITT Intermetall</description>
<wire x1="1.4224" y1="0.6604" x2="1.4224" y2="-0.6604" width="0.127" layer="51"/>
<wire x1="1.4224" y1="-0.6604" x2="-1.4224" y2="-0.6604" width="0.127" layer="51"/>
<wire x1="-1.4224" y1="-0.6604" x2="-1.4224" y2="0.6604" width="0.127" layer="51"/>
<wire x1="-1.4224" y1="0.6604" x2="1.4224" y2="0.6604" width="0.127" layer="51"/>
<smd name="C" x="0" y="1.1" dx="1" dy="1.4" layer="1"/>
<smd name="E" x="0.95" y="-1.1" dx="1" dy="1.4" layer="1"/>
<smd name="B" x="-0.95" y="-1.1" dx="1" dy="1.4" layer="1"/>
<text x="-1.905" y="1.905" size="1.27" layer="25">&gt;NAME</text>
<text x="-1.905" y="-3.175" size="1.27" layer="27">&gt;VALUE</text>
<rectangle x1="-0.2286" y1="0.7112" x2="0.2286" y2="1.2954" layer="51"/>
<rectangle x1="0.7112" y1="-1.2954" x2="1.1684" y2="-0.7112" layer="51"/>
<rectangle x1="-1.1684" y1="-1.2954" x2="-0.7112" y2="-0.7112" layer="51"/>
</package>
</packages>
</library>
</libraries>
<attributes>
</attributes>
<variantdefs>
</variantdefs>
<classes>
<class number="0" name="default" width="0.254" drill="0.254">
<clearance class="0" value="0.508"/>
</class>
</classes>
<designrules name="SeeedStudio_DRU_no_angle_20130527">
<description language="de">&lt;b&gt;EAGLE Design Rules&lt;/b&gt;
&lt;p&gt;
Die Standard-Design-Rules sind so gewählt, dass sie für 
die meisten Anwendungen passen. Sollte ihre Platine 
besondere Anforderungen haben, treffen Sie die erforderlichen
Einstellungen hier und speichern die Design Rules unter 
einem neuen Namen ab.</description>
<description language="en">&lt;b&gt;EAGLE Design Rules&lt;/b&gt;
&lt;p&gt;
The default Design Rules have been set to cover
a wide range of applications. Your particular design
may have different requirements, so please make the
necessary adjustments and save your customized
design rules under a new name.</description>
<description language="zh">&lt;b&gt;Seeed Studio EAGLE Design Rules&lt;/b&gt;
</description>
<param name="layerSetup" value="(1*2*15*16)"/>
<param name="mtCopper" value="0.035mm 0.0175mm 0.035mm 0.035mm 0.035mm 0.035mm 0.035mm 0.035mm 0.035mm 0.035mm 0.035mm 0.035mm 0.035mm 0.035mm 0.0175mm 0.035mm"/>
<param name="mtIsolate" value="0.2mm 1.1mm 0.2mm 0.15mm 0.2mm 0.15mm 0.2mm 0.15mm 0.2mm 0.15mm 0.2mm 0.15mm 0.2mm 0.15mm 0.2mm"/>
<param name="mdWireWire" value="6mil"/>
<param name="mdWirePad" value="6mil"/>
<param name="mdWireVia" value="6mil"/>
<param name="mdPadPad" value="6mil"/>
<param name="mdPadVia" value="6mil"/>
<param name="mdViaVia" value="6mil"/>
<param name="mdSmdPad" value="0mil"/>
<param name="mdSmdVia" value="0mil"/>
<param name="mdSmdSmd" value="0mil"/>
<param name="mdViaViaSameLayer" value="8mil"/>
<param name="mnLayersViaInSmd" value="2"/>
<param name="mdCopperDimension" value="10mil"/>
<param name="mdDrill" value="10mil"/>
<param name="mdSmdStop" value="0mil"/>
<param name="msWidth" value="6mil"/>
<param name="msDrill" value="12mil"/>
<param name="msMicroVia" value="12mil"/>
<param name="msBlindViaRatio" value="0.5"/>
<param name="rvPadTop" value="0.25"/>
<param name="rvPadInner" value="0.25"/>
<param name="rvPadBottom" value="0.25"/>
<param name="rvViaOuter" value="0.25"/>
<param name="rvViaInner" value="0.25"/>
<param name="rvMicroViaOuter" value="0.25"/>
<param name="rvMicroViaInner" value="0.25"/>
<param name="rlMinPadTop" value="6mil"/>
<param name="rlMaxPadTop" value="20mil"/>
<param name="rlMinPadInner" value="6mil"/>
<param name="rlMaxPadInner" value="20mil"/>
<param name="rlMinPadBottom" value="6mil"/>
<param name="rlMaxPadBottom" value="20mil"/>
<param name="rlMinViaOuter" value="6mil"/>
<param name="rlMaxViaOuter" value="20mil"/>
<param name="rlMinViaInner" value="6mil"/>
<param name="rlMaxViaInner" value="20mil"/>
<param name="rlMinMicroViaOuter" value="4mil"/>
<param name="rlMaxMicroViaOuter" value="20mil"/>
<param name="rlMinMicroViaInner" value="4mil"/>
<param name="rlMaxMicroViaInner" value="20mil"/>
<param name="psTop" value="-1"/>
<param name="psBottom" value="-1"/>
<param name="psFirst" value="0"/>
<param name="psElongationLong" value="100"/>
<param name="psElongationOffset" value="100"/>
<param name="mvStopFrame" value="1"/>
<param name="mvCreamFrame" value="0"/>
<param name="mlMinStopFrame" value="2mil"/>
<param name="mlMaxStopFrame" value="2mil"/>
<param name="mlMinCreamFrame" value="0mil"/>
<param name="mlMaxCreamFrame" value="0mil"/>
<param name="mlViaStopLimit" value="25mil"/>
<param name="srRoundness" value="0"/>
<param name="srMinRoundness" value="0mil"/>
<param name="srMaxRoundness" value="0mil"/>
<param name="slThermalIsolate" value="10mil"/>
<param name="slThermalsForVias" value="0"/>
<param name="dpMaxLengthDifference" value="10mm"/>
<param name="dpGapFactor" value="2.5"/>
<param name="checkGrid" value="0"/>
<param name="checkAngle" value="0"/>
<param name="checkFont" value="1"/>
<param name="checkRestrict" value="0"/>
<param name="useDiameter" value="13"/>
<param name="maxErrors" value="50"/>
</designrules>
<autorouter>
<pass name="Default">
<param name="RoutingGrid" value="50mil"/>
<param name="tpViaShape" value="round"/>
<param name="PrefDir.1" value="|"/>
<param name="PrefDir.2" value="0"/>
<param name="PrefDir.3" value="0"/>
<param name="PrefDir.4" value="0"/>
<param name="PrefDir.5" value="0"/>
<param name="PrefDir.6" value="0"/>
<param name="PrefDir.7" value="0"/>
<param name="PrefDir.8" value="0"/>
<param name="PrefDir.9" value="0"/>
<param name="PrefDir.10" value="0"/>
<param name="PrefDir.11" value="0"/>
<param name="PrefDir.12" value="0"/>
<param name="PrefDir.13" value="0"/>
<param name="PrefDir.14" value="0"/>
<param name="PrefDir.15" value="0"/>
<param name="PrefDir.16" value="0"/>
<param name="cfVia" value="8"/>
<param name="cfNonPref" value="5"/>
<param name="cfChangeDir" value="2"/>
<param name="cfOrthStep" value="2"/>
<param name="cfDiagStep" value="3"/>
<param name="cfExtdStep" value="0"/>
<param name="cfBonusStep" value="1"/>
<param name="cfMalusStep" value="1"/>
<param name="cfPadImpact" value="4"/>
<param name="cfSmdImpact" value="4"/>
<param name="cfBusImpact" value="0"/>
<param name="cfHugging" value="3"/>
<param name="cfAvoid" value="4"/>
<param name="cfPolygon" value="10"/>
<param name="cfBase.1" value="0"/>
<param name="cfBase.2" value="1"/>
<param name="cfBase.3" value="1"/>
<param name="cfBase.4" value="1"/>
<param name="cfBase.5" value="1"/>
<param name="cfBase.6" value="1"/>
<param name="cfBase.7" value="1"/>
<param name="cfBase.8" value="1"/>
<param name="cfBase.9" value="1"/>
<param name="cfBase.10" value="1"/>
<param name="cfBase.11" value="1"/>
<param name="cfBase.12" value="1"/>
<param name="cfBase.13" value="1"/>
<param name="cfBase.14" value="1"/>
<param name="cfBase.15" value="1"/>
<param name="cfBase.16" value="0"/>
<param name="mnVias" value="20"/>
<param name="mnSegments" value="9999"/>
<param name="mnExtdSteps" value="9999"/>
<param name="mnRipupLevel" value="10"/>
<param name="mnRipupSteps" value="100"/>
<param name="mnRipupTotal" value="100"/>
</pass>
<pass name="Follow-me" refer="Default" active="yes">
</pass>
<pass name="Busses" refer="Default" active="yes">
<param name="cfNonPref" value="4"/>
<param name="cfBusImpact" value="4"/>
<param name="cfHugging" value="0"/>
<param name="mnVias" value="0"/>
</pass>
<pass name="Route" refer="Default" active="yes">
</pass>
<pass name="Optimize1" refer="Default" active="yes">
<param name="cfVia" value="99"/>
<param name="cfExtdStep" value="10"/>
<param name="cfHugging" value="1"/>
<param name="mnExtdSteps" value="1"/>
<param name="mnRipupLevel" value="0"/>
</pass>
<pass name="Optimize2" refer="Optimize1" active="yes">
<param name="cfNonPref" value="0"/>
<param name="cfChangeDir" value="6"/>
<param name="cfExtdStep" value="0"/>
<param name="cfBonusStep" value="2"/>
<param name="cfMalusStep" value="2"/>
<param name="cfPadImpact" value="2"/>
<param name="cfSmdImpact" value="2"/>
<param name="cfHugging" value="0"/>
</pass>
<pass name="Optimize3" refer="Optimize2" active="yes">
<param name="cfChangeDir" value="8"/>
<param name="cfPadImpact" value="0"/>
<param name="cfSmdImpact" value="0"/>
</pass>
<pass name="Optimize4" refer="Optimize3" active="yes">
<param name="cfChangeDir" value="25"/>
</pass>
</autorouter>
<elements>
<element name="ATTINY85" library="atmel" package="SOIC8" value="TINY15LS" x="23.555" y="8.56" rot="R270">
<attribute name="OC_NEWARK" value="unknown" x="18.475" y="-18.11" size="1.778" layer="27" rot="R270" display="off"/>
<attribute name="MPN" value="" x="18.475" y="-18.11" size="1.778" layer="27" rot="R270" display="off"/>
<attribute name="MF" value="" x="18.475" y="-18.11" size="1.778" layer="27" rot="R270" display="off"/>
<attribute name="OC_FARNELL" value="unknown" x="18.475" y="-18.11" size="1.778" layer="27" rot="R270" display="off"/>
</element>
<element name="R1" library="adafruit" package="M1206" value="1K0" x="23.345" y="13.88" rot="R90"/>
<element name="XD-FST" library="SparkFun-Connectors" package="1X03_NO_SILK" value="" x="15.75" y="15.285"/>
<element name="Q2" library="transistor-npn" package="SOT23-BEC" value="BC817-16LT1SMD" x="27.825" y="14.425" rot="R270"/>
<element name="POWERJACK" library="SparkFun-Connectors" package="1X02" value="M02PTH" x="35.25" y="13.75" rot="R90"/>
<element name="R3" library="adafruit" package="M1206" value="0K" x="31.625" y="10.425" rot="R90"/>
<element name="PROGRAMMER" library="SparkFun-Connectors" package="1X06" value="" x="22.55" y="3.275"/>
<element name="JP2" library="SparkFun-Connectors" package="1X06" value="" x="13.175" y="2.6" rot="R89.9"/>
<element name="JP4" library="SparkFun-Connectors" package="1X06" value="" x="10.35" y="2.55" rot="R90"/>
<element name="JP5" library="SparkFun-Connectors" package="1X06" value="" x="7.6" y="15.225" rot="R270"/>
<element name="JP1" library="SparkFun-Connectors" package="1X06" value="" x="2.2" y="2.475" rot="R90"/>
<element name="JP3" library="SparkFun-Connectors" package="1X06" value="" x="4.75" y="15.2" rot="R270"/>
</elements>
<signals>
<signal name="1W">
<contactref element="ATTINY85" pad="3"/>
<contactref element="JP2" pad="3"/>
<wire x1="13.183865625" y1="7.679990625" x2="18.004503125" y2="7.654503125" width="0.4064" layer="1"/>
<wire x1="18.004503125" y1="7.654503125" x2="18.25" y2="7.9" width="0.4064" layer="1"/>
<wire x1="18.25" y1="7.9" x2="20.366" y2="7.9" width="0.4064" layer="1"/>
<wire x1="20.366" y1="7.9" x2="20.401" y2="7.935" width="0.4064" layer="1"/>
</signal>
<signal name="GND">
<contactref element="ATTINY85" pad="4"/>
<contactref element="XD-FST" pad="1"/>
<contactref element="POWERJACK" pad="2"/>
<polygon width="0.254" layer="1">
<vertex x="12.825" y="18.325"/>
<vertex x="12.8" y="17"/>
<vertex x="12.975" y="1.4"/>
<vertex x="37.4" y="1.4"/>
<vertex x="37.35" y="18.325"/>
</polygon>
<contactref element="PROGRAMMER" pad="5"/>
<contactref element="JP2" pad="6"/>
</signal>
<signal name="N$1">
<contactref element="R1" pad="2"/>
<contactref element="Q2" pad="B"/>
<wire x1="26.7" y1="15.13" x2="26.725" y2="15.375" width="0.254" layer="1"/>
<wire x1="23.345" y1="15.28" x2="26.63" y2="15.28" width="0.4064" layer="1"/>
<wire x1="26.63" y1="15.28" x2="26.725" y2="15.375" width="0.254" layer="1"/>
</signal>
<signal name="MOSI">
<contactref element="PROGRAMMER" pad="2"/>
<contactref element="R1" pad="1"/>
<contactref element="ATTINY85" pad="5"/>
<wire x1="26.709" y1="6.655" x2="25.09" y2="6.655" width="0.4064" layer="1"/>
<wire x1="25.09" y1="6.655" x2="25.09" y2="3.275" width="0.4064" layer="1"/>
<wire x1="25.09" y1="6.655" x2="24.245" y2="6.655" width="0.4064" layer="1"/>
<wire x1="24.245" y1="6.655" x2="24" y2="6.9" width="0.4064" layer="1"/>
<wire x1="24" y1="6.9" x2="24" y2="10.25" width="0.4064" layer="1"/>
<wire x1="24" y1="10.25" x2="23.35" y2="10.9" width="0.4064" layer="1"/>
<wire x1="23.35" y1="10.9" x2="23.35" y2="12.475" width="0.4064" layer="1"/>
<wire x1="23.35" y1="12.475" x2="23.345" y2="12.48" width="0.4064" layer="1"/>
</signal>
<signal name="VDD">
<contactref element="ATTINY85" pad="8"/>
<contactref element="POWERJACK" pad="1"/>
<contactref element="Q2" pad="C"/>
<contactref element="PROGRAMMER" pad="6"/>
<wire x1="35.25" y1="13.75" x2="35.25" y2="10.465" width="0.4064" layer="1"/>
<wire x1="35.25" y1="10.465" x2="35.25" y2="3.275" width="0.4064" layer="1"/>
<wire x1="26.709" y1="10.465" x2="28.875" y2="10.465" width="0.4064" layer="1"/>
<wire x1="28.875" y1="10.465" x2="35.25" y2="10.465" width="0.4064" layer="1"/>
<wire x1="28.925" y1="14.425" x2="28.875" y2="14.425" width="0.258" layer="1"/>
<wire x1="28.875" y1="14.425" x2="28.875" y2="10.465" width="0.4064" layer="1"/>
</signal>
<signal name="MISO">
<contactref element="ATTINY85" pad="6"/>
<contactref element="PROGRAMMER" pad="3"/>
<wire x1="26.709" y1="7.925" x2="28.4" y2="7.925" width="0.4064" layer="1"/>
<wire x1="28.4" y1="7.925" x2="28.75" y2="7.575" width="0.4064" layer="1"/>
<wire x1="28.75" y1="7.575" x2="28.75" y2="5.25" width="0.4064" layer="1"/>
<wire x1="28.75" y1="5.25" x2="27.65" y2="4.15" width="0.4064" layer="1"/>
<wire x1="27.65" y1="4.15" x2="27.65" y2="3.295" width="0.4064" layer="1"/>
<wire x1="27.65" y1="3.295" x2="27.63" y2="3.275" width="0.258" layer="1"/>
</signal>
<signal name="RST">
<contactref element="ATTINY85" pad="1"/>
<contactref element="PROGRAMMER" pad="1"/>
<wire x1="20.401" y1="10.465" x2="21.86" y2="10.465" width="0.4064" layer="1"/>
<wire x1="21.86" y1="10.465" x2="22.55" y2="9.775" width="0.4064" layer="1"/>
<wire x1="22.55" y1="9.775" x2="22.55" y2="3.275" width="0.4064" layer="1"/>
</signal>
<signal name="SCK">
<contactref element="ATTINY85" pad="7"/>
<contactref element="R3" pad="1"/>
<contactref element="PROGRAMMER" pad="4"/>
<wire x1="26.709" y1="9.195" x2="31.625" y2="9.195" width="0.4064" layer="1"/>
<wire x1="31.625" y1="9.195" x2="31.625" y2="9.025" width="0.254" layer="1"/>
<wire x1="30.17" y1="3.87" x2="31.625" y2="5.325" width="0.4064" layer="1"/>
<wire x1="31.625" y1="5.325" x2="31.625" y2="9.025" width="0.4064" layer="1"/>
<wire x1="30.17" y1="3.87" x2="30.17" y2="3.275" width="0.4064" layer="1"/>
</signal>
<signal name="AIN0">
<contactref element="ATTINY85" pad="2"/>
<contactref element="JP2" pad="4"/>
<wire x1="20.401" y1="9.205" x2="15.995" y2="9.205" width="0.4064" layer="1"/>
<wire x1="15.995" y1="9.205" x2="14.975" y2="10.225" width="0.4064" layer="1"/>
<wire x1="14.975" y1="10.225" x2="13.07435" y2="10.225" width="0.4064" layer="1"/>
<wire x1="13.07435" y1="10.225" x2="13.188296875" y2="10.2199875" width="0.4064" layer="1"/>
</signal>
<signal name="POWER">
<contactref element="XD-FST" pad="2"/>
<contactref element="Q2" pad="E"/>
<contactref element="JP2" pad="5"/>
<wire x1="13.19273125" y1="12.759984375" x2="16.79" y2="12.734009375" width="0.4064" layer="1"/>
<wire x1="16.79" y1="12.734009375" x2="18.29" y2="13.875" width="0.4064" layer="1"/>
<wire x1="18.29" y1="13.875" x2="18.29" y2="15.285" width="0.4064" layer="1"/>
<wire x1="26.725" y1="13.475" x2="26.825" y2="13.475" width="0.254" layer="1"/>
<wire x1="26.825" y1="13.475" x2="26.825" y2="13.85" width="0.254" layer="1"/>
<wire x1="26.825" y1="13.85" x2="26.525" y2="13.85" width="0.254" layer="1"/>
<wire x1="26.525" y1="13.85" x2="26.525" y2="13.875" width="0.254" layer="1"/>
<wire x1="26.525" y1="13.875" x2="18.29" y2="13.875" width="0.254" layer="1"/>
</signal>
<signal name="N$2">
</signal>
<signal name="N$3">
</signal>
<signal name="N$5">
</signal>
<signal name="N$4">
<contactref element="R3" pad="2"/>
<contactref element="XD-FST" pad="3"/>
<wire x1="31.625" y1="11.825" x2="31.625" y2="16.025" width="0.4064" layer="1"/>
<wire x1="31.625" y1="16.025" x2="30.775" y2="16.875" width="0.4064" layer="1"/>
<wire x1="20.83" y1="15.285" x2="20.83" y2="16.855" width="0.4064" layer="1"/>
<wire x1="20.83" y1="16.855" x2="21.775" y2="16.875" width="0.4064" layer="1"/>
<wire x1="21.775" y1="16.875" x2="30.775" y2="16.875" width="0.4064" layer="1"/>
</signal>
<signal name="N$6">
<contactref element="JP4" pad="6"/>
<contactref element="JP5" pad="1"/>
<wire x1="7.6" y1="15.225" x2="10.35" y2="15.25" width="0.6096" layer="1"/>
</signal>
<signal name="N$7">
<contactref element="JP4" pad="5"/>
<contactref element="JP5" pad="2"/>
<wire x1="7.6" y1="12.685" x2="10.35" y2="12.71" width="0.6096" layer="1"/>
</signal>
<signal name="N$8">
<contactref element="JP4" pad="4"/>
<contactref element="JP5" pad="3"/>
<wire x1="7.6" y1="10.145" x2="10.35" y2="10.17" width="0.6096" layer="1"/>
</signal>
<signal name="N$9">
<contactref element="JP4" pad="3"/>
<contactref element="JP5" pad="4"/>
<wire x1="7.6" y1="7.605" x2="10.35" y2="7.63" width="0.6096" layer="1"/>
</signal>
<signal name="N$10">
<contactref element="JP4" pad="2"/>
<contactref element="JP5" pad="5"/>
<wire x1="7.6" y1="5.065" x2="10.35" y2="5.09" width="0.6096" layer="1"/>
</signal>
<signal name="N$11">
<contactref element="JP4" pad="1"/>
<contactref element="JP5" pad="6"/>
<wire x1="7.6" y1="2.525" x2="10.35" y2="2.55" width="0.6096" layer="1"/>
</signal>
<signal name="N$12">
<contactref element="JP1" pad="6"/>
<contactref element="JP3" pad="1"/>
<wire x1="2.2" y1="15.175" x2="4.725" y2="15.175" width="0.6096" layer="1"/>
<wire x1="4.725" y1="15.175" x2="4.75" y2="15.2" width="0.4064" layer="1"/>
</signal>
<signal name="N$13">
<contactref element="JP1" pad="5"/>
<contactref element="JP3" pad="2"/>
<wire x1="2.2" y1="12.635" x2="4.725" y2="12.635" width="0.6096" layer="1"/>
<wire x1="4.725" y1="12.635" x2="4.75" y2="12.66" width="0.4064" layer="1"/>
</signal>
<signal name="N$14">
<contactref element="JP1" pad="4"/>
<contactref element="JP3" pad="3"/>
<wire x1="2.2" y1="10.095" x2="4.725" y2="10.095" width="0.6096" layer="1"/>
<wire x1="4.725" y1="10.095" x2="4.75" y2="10.12" width="0.4064" layer="1"/>
</signal>
<signal name="N$15">
<contactref element="JP1" pad="3"/>
<contactref element="JP3" pad="4"/>
<wire x1="2.2" y1="7.555" x2="4.725" y2="7.555" width="0.6096" layer="1"/>
<wire x1="4.725" y1="7.555" x2="4.75" y2="7.58" width="0.4064" layer="1"/>
</signal>
<signal name="N$16">
<contactref element="JP1" pad="2"/>
<contactref element="JP3" pad="5"/>
<wire x1="2.2" y1="5.015" x2="4.725" y2="5.015" width="0.6096" layer="1"/>
<wire x1="4.725" y1="5.015" x2="4.75" y2="5.04" width="0.4064" layer="1"/>
</signal>
<signal name="N$17">
<contactref element="JP1" pad="1"/>
<contactref element="JP3" pad="6"/>
<wire x1="2.2" y1="2.475" x2="4.725" y2="2.475" width="0.6096" layer="1"/>
<wire x1="4.725" y1="2.475" x2="4.75" y2="2.5" width="0.4064" layer="1"/>
</signal>
</signals>
</board>
</drawing>
</eagle>
